C2/2.8.1.7.csv

X,CH1,Start,Increment,adjusted
Sequence,VOLT,4.75E-05,1.00E-06,
0,-0.00224,,,0.00028
1,-0.00224,,,0.00028
2,-0.00224,,,0.00028
3,-0.00224,,,0.00028
4,-0.00224,,,0.00028
5,-0.00252,,,0
6,-0.00252,,,0
7,-0.00252,,,0
8,-0.00252,,,0
9,-0.00252,,,0
10,-0.00224,,,0.00028
11,-0.00224,,,0.00028
12,-0.00224,,,0.00028
13,-0.00224,,,0.00028
14,-0.00252,,,0
15,-0.00252,,,0
16,-0.00252,,,0
17,-0.00252,,,0
18,-0.00252,,,0
19,-0.00252,,,0
20,-0.00252,,,0
21,-0.00252,,,0
22,-0.00252,,,0
23,-0.00252,,,0
24,-0.00252,,,0
25,-0.00252,,,0
26,-0.00252,,,0
27,-0.00224,,,0.00028
28,-0.00252,,,0
29,-0.00252,,,0
30,-0.00252,,,0
31,-0.00252,,,0
32,-0.00252,,,0
33,-0.00224,,,0.00028
34,-0.00252,,,0
35,-0.00224,,,0.00028
36,-0.00224,,,0.00028
37,-0.00224,,,0.00028
38,-0.00252,,,0
39,-0.00224,,,0.00028
40,-0.00224,,,0.00028
41,-0.00224,,,0.00028
42,-0.00224,,,0.00028
43,-0.00224,,,0.00028
44,-0.00224,,,0.00028
45,-0.00224,,,0.00028
46,-0.00224,,,0.00028
47,-0.00224,,,0.00028
48,-0.00224,,,0.00028
49,-0.00252,,,0
50,-0.00224,,,0.00028
51,-0.00224,,,0.00028
52,-0.00224,,,0.00028
53,-0.00224,,,0.00028
54,-0.00224,,,0.00028
55,-0.00252,,,0
56,-0.00224,,,0.00028
57,-0.00252,,,0
58,-0.00252,,,0
59,-0.00224,,,0.00028
60,-0.00224,,,0.00028
61,-0.00224,,,0.00028
62,-0.00224,,,0.00028
63,-0.00224,,,0.00028
64,-0.00252,,,0
65,-0.00252,,,0
66,-0.00224,,,0.00028
67,-0.00224,,,0.00028
68,-0.00224,,,0.00028
69,-0.00224,,,0.00028
70,-0.00224,,,0.00028
71,-0.00252,,,0
72,-0.00252,,,0
73,-0.00224,,,0.00028
74,-0.00224,,,0.00028
75,-0.00252,,,0
76,-0.00224,,,0.00028
77,-0.00224,,,0.00028
78,-0.00224,,,0.00028
79,-0.00224,,,0.00028
80,-0.00224,,,0.00028
81,-0.00224,,,0.00028
82,-0.00224,,,0.00028
83,-0.00224,,,0.00028
84,-0.00224,,,0.00028
85,-0.00224,,,0.00028
86,-0.00224,,,0.00028
87,-0.00224,,,0.00028
88,-0.00224,,,0.00028
89,-0.00252,,,0
90,-0.00252,,,0
91,-0.00252,,,0
92,-0.00224,,,0.00028
93,-0.00224,,,0.00028
94,-0.00224,,,0.00028
95,-0.00224,,,0.00028
96,-0.00224,,,0.00028
97,-0.00224,,,0.00028
98,-0.00252,,,0
99,-0.00224,,,0.00028
100,-0.00224,,,0.00028
101,-0.00224,,,0.00028
102,-0.00224,,,0.00028
103,-0.00224,,,0.00028
104,-0.00224,,,0.00028
105,-0.00252,,,0
106,-0.00224,,,0.00028
107,-0.00224,,,0.00028
108,-0.00224,,,0.00028
109,-0.00224,,,0.00028
110,-0.00224,,,0.00028
111,-0.00224,,,0.00028
112,-0.00224,,,0.00028
113,-0.00224,,,0.00028
114,-0.00252,,,0
115,-0.00252,,,0
116,-0.00224,,,0.00028
117,-0.00224,,,0.00028
118,-0.00224,,,0.00028
119,-0.00224,,,0.00028
120,-0.00224,,,0.00028
121,-0.00252,,,0
122,-0.00224,,,0.00028
123,-0.00224,,,0.00028
124,-0.00224,,,0.00028
125,-0.00224,,,0.00028
126,-0.00224,,,0.00028
127,-0.00224,,,0.00028
128,-0.00224,,,0.00028
129,-0.00224,,,0.00028
130,-0.00224,,,0.00028
131,-0.00224,,,0.00028
132,-0.00196,,,0.00056
133,-0.00196,,,0.00056
134,-0.00196,,,0.00056
135,-0.00196,,,0.00056
136,-0.00168,,,0.00084
137,-0.00168,,,0.00084
138,-0.00168,,,0.00084
139,-0.00168,,,0.00084
140,-0.00168,,,0.00084
141,-0.00168,,,0.00084
142,-0.00168,,,0.00084
143,-0.00168,,,0.00084
144,-0.00168,,,0.00084
145,-0.0014,,,0.00112
146,-0.0014,,,0.00112
147,-0.0014,,,0.00112
148,-0.0014,,,0.00112
149,-0.00112,,,0.0014
150,-0.00112,,,0.0014
151,-0.00112,,,0.0014
152,-0.00084,,,0.00168
153,-0.00084,,,0.00168
154,-0.00084,,,0.00168
155,-0.00084,,,0.00168
156,-0.00084,,,0.00168
157,-0.00084,,,0.00168
158,-0.00084,,,0.00168
159,-0.00084,,,0.00168
160,-0.00056,,,0.00196
161,-0.00056,,,0.00196
162,-0.00056,,,0.00196
163,-0.00056,,,0.00196
164,-0.00056,,,0.00196
165,-0.00028,,,0.00224
166,-0.00028,,,0.00224
167,-0.00028,,,0.00224
168,0,,,0.00252
169,0,,,0.00252
170,0,,,0.00252
171,0,,,0.00252
172,0,,,0.00252
173,0,,,0.00252
174,0.00028,,,0.0028
175,0.00028,,,0.0028
176,0.00028,,,0.0028
177,0.00028,,,0.0028
178,0.00028,,,0.0028
179,0.00028,,,0.0028
180,0.00028,,,0.0028
181,0.00028,,,0.0028
182,0.00028,,,0.0028
183,0.00028,,,0.0028
184,0.00028,,,0.0028
185,0.00028,,,0.0028
186,0.00056,,,0.00308
187,0.00056,,,0.00308
188,0.00056,,,0.00308
189,0.00056,,,0.00308
190,0.00056,,,0.00308
191,0.00056,,,0.00308
192,0.00056,,,0.00308
193,0.00056,,,0.00308
194,0.00056,,,0.00308
195,0.00056,,,0.00308
196,0.00056,,,0.00308
197,0.00056,,,0.00308
198,0.00056,,,0.00308
199,0.00056,,,0.00308
200,0.00056,,,0.00308
201,0.00056,,,0.00308
202,0.00056,,,0.00308
203,0.00056,,,0.00308
204,0.00056,,,0.00308
205,0.00056,,,0.00308
206,0.00056,,,0.00308
207,0.00056,,,0.00308
208,0.00084,,,0.00336
209,0.00084,,,0.00336
210,0.00084,,,0.00336
211,0.00084,,,0.00336
212,0.00112,,,0.00364
213,0.00112,,,0.00364
214,0.00112,,,0.00364
215,0.00112,,,0.00364
216,0.00112,,,0.00364
217,0.00112,,,0.00364
218,0.00112,,,0.00364
219,0.00112,,,0.00364
220,0.0014,,,0.00392
221,0.0014,,,0.00392
222,0.0014,,,0.00392
223,0.0014,,,0.00392
224,0.0014,,,0.00392
225,0.0014,,,0.00392
226,0.0014,,,0.00392
227,0.0014,,,0.00392
228,0.0014,,,0.00392
229,0.0014,,,0.00392
230,0.0014,,,0.00392
231,0.0014,,,0.00392
232,0.0014,,,0.00392
233,0.0014,,,0.00392
234,0.00112,,,0.00364
235,0.00112,,,0.00364
236,0.00112,,,0.00364
237,0.00112,,,0.00364
238,0.00084,,,0.00336
239,0.00084,,,0.00336
240,0.00084,,,0.00336
241,0.00084,,,0.00336
242,0.00084,,,0.00336
243,0.00084,,,0.00336
244,0.00084,,,0.00336
245,0.00084,,,0.00336
246,0.00084,,,0.00336
247,0.00084,,,0.00336
248,0.00084,,,0.00336
249,0.00056,,,0.00308
250,0.00056,,,0.00308
251,0.00056,,,0.00308
252,0.00056,,,0.00308
253,0.00056,,,0.00308
254,0.00056,,,0.00308
255,0.00056,,,0.00308
256,0.00056,,,0.00308
257,0.00056,,,0.00308
258,0.00056,,,0.00308
259,0.00056,,,0.00308
260,0.00028,,,0.0028
261,0.00028,,,0.0028
262,0.00028,,,0.0028
263,0.00028,,,0.0028
264,0,,,0.00252
265,0,,,0.00252
266,0,,,0.00252
267,0,,,0.00252
268,0,,,0.00252
269,0,,,0.00252
270,0,,,0.00252
271,-0.00028,,,0.00224
272,-0.00028,,,0.00224
273,-0.00028,,,0.00224
274,-0.00028,,,0.00224
275,-0.00028,,,0.00224
276,-0.00028,,,0.00224
277,-0.00056,,,0.00196
278,-0.00056,,,0.00196
279,-0.00056,,,0.00196
280,-0.00084,,,0.00168
281,-0.00084,,,0.00168
282,-0.00084,,,0.00168
283,-0.00084,,,0.00168
284,-0.00084,,,0.00168
285,-0.00084,,,0.00168
286,-0.00112,,,0.0014
287,-0.00112,,,0.0014
288,-0.00112,,,0.0014
289,-0.00112,,,0.0014
290,-0.00112,,,0.0014
291,-0.00112,,,0.0014
292,-0.00112,,,0.0014
293,-0.00112,,,0.0014
294,-0.00112,,,0.0014
295,-0.00112,,,0.0014
296,-0.0014,,,0.00112
297,-0.0014,,,0.00112
298,-0.00168,,,0.00084
299,-0.00168,,,0.00084
300,-0.00168,,,0.00084
301,-0.00168,,,0.00084
302,-0.00168,,,0.00084
303,-0.00196,,,0.00056
304,-0.00196,,,0.00056
305,-0.00196,,,0.00056
306,-0.00196,,,0.00056
307,-0.00196,,,0.00056
308,-0.00196,,,0.00056
309,-0.00196,,,0.00056
310,-0.00224,,,0.00028
311,-0.00224,,,0.00028
312,-0.00224,,,0.00028
313,-0.00224,,,0.00028
314,-0.00224,,,0.00028
315,-0.00224,,,0.00028
316,-0.00224,,,0.00028
317,-0.00224,,,0.00028
318,-0.00224,,,0.00028
319,-0.00224,,,0.00028
320,-0.00224,,,0.00028
321,-0.00224,,,0.00028
322,-0.00224,,,0.00028
323,-0.00224,,,0.00028
324,-0.00224,,,0.00028
325,-0.00224,,,0.00028
326,-0.00224,,,0.00028
327,-0.00224,,,0.00028
328,-0.00196,,,0.00056
329,-0.00196,,,0.00056
330,-0.00196,,,0.00056
331,-0.00196,,,0.00056
332,-0.00196,,,0.00056
333,-0.00168,,,0.00084
334,-0.00168,,,0.00084
335,-0.00168,,,0.00084
336,-0.00168,,,0.00084
337,-0.00168,,,0.00084
338,-0.00168,,,0.00084
339,-0.00168,,,0.00084
340,-0.0014,,,0.00112
341,-0.0014,,,0.00112
342,-0.0014,,,0.00112
343,-0.00112,,,0.0014
344,-0.00112,,,0.0014
345,-0.00112,,,0.0014
346,-0.00112,,,0.0014
347,-0.00084,,,0.00168
348,-0.00084,,,0.00168
349,-0.00084,,,0.00168
350,-0.00056,,,0.00196
351,-0.00056,,,0.00196
352,-0.00056,,,0.00196
353,-0.00028,,,0.00224
354,-0.00028,,,0.00224
355,-0.00028,,,0.00224
356,-0.00028,,,0.00224
357,0,,,0.00252
358,0,,,0.00252
359,0,,,0.00252
360,0.00028,,,0.0028
361,0.00028,,,0.0028
362,0.00056,,,0.00308
363,0.00056,,,0.00308
364,0.00056,,,0.00308
365,0.00056,,,0.00308
366,0.00084,,,0.00336
367,0.00084,,,0.00336
368,0.00084,,,0.00336
369,0.00112,,,0.00364
370,0.00112,,,0.00364
371,0.0014,,,0.00392
372,0.0014,,,0.00392
373,0.0014,,,0.00392
374,0.00168,,,0.0042
375,0.00168,,,0.0042
376,0.00168,,,0.0042
377,0.00196,,,0.00448
378,0.00196,,,0.00448
379,0.00196,,,0.00448
380,0.00196,,,0.00448
381,0.00196,,,0.00448
382,0.00196,,,0.00448
383,0.00224,,,0.00476
384,0.00224,,,0.00476
385,0.00224,,,0.00476
386,0.00224,,,0.00476
387,0.00224,,,0.00476
388,0.00224,,,0.00476
389,0.00224,,,0.00476
390,0.00224,,,0.00476
391,0.00224,,,0.00476
392,0.00224,,,0.00476
393,0.00252,,,0.00504
394,0.00252,,,0.00504
395,0.0028,,,0.00532
396,0.0028,,,0.00532
397,0.0028,,,0.00532
398,0.0028,,,0.00532
399,0.0028,,,0.00532
400,0.00308,,,0.0056
401,0.00308,,,0.0056
402,0.00308,,,0.0056
403,0.00308,,,0.0056
404,0.00308,,,0.0056
405,0.00308,,,0.0056
406,0.00308,,,0.0056
407,0.00308,,,0.0056
408,0.00308,,,0.0056
409,0.00308,,,0.0056
410,0.00336,,,0.00588
411,0.00336,,,0.00588
412,0.00336,,,0.00588
413,0.00336,,,0.00588
414,0.00336,,,0.00588
415,0.00336,,,0.00588
416,0.00336,,,0.00588
417,0.00336,,,0.00588
418,0.00336,,,0.00588
419,0.00336,,,0.00588
420,0.00336,,,0.00588
421,0.00336,,,0.00588
422,0.00336,,,0.00588
423,0.00336,,,0.00588
424,0.00308,,,0.0056
425,0.00308,,,0.0056
426,0.00308,,,0.0056
427,0.00308,,,0.0056
428,0.00308,,,0.0056
429,0.0028,,,0.00532
430,0.0028,,,0.00532
431,0.0028,,,0.00532
432,0.0028,,,0.00532
433,0.0028,,,0.00532
434,0.0028,,,0.00532
435,0.0028,,,0.00532
436,0.0028,,,0.00532
437,0.0028,,,0.00532
438,0.00252,,,0.00504
439,0.00252,,,0.00504
440,0.00252,,,0.00504
441,0.00252,,,0.00504
442,0.00252,,,0.00504
443,0.00252,,,0.00504
444,0.00252,,,0.00504
445,0.00224,,,0.00476
446,0.00224,,,0.00476
447,0.00224,,,0.00476
448,0.00224,,,0.00476
449,0.00196,,,0.00448
450,0.00196,,,0.00448
451,0.00196,,,0.00448
452,0.00196,,,0.00448
453,0.00196,,,0.00448
454,0.00196,,,0.00448
455,0.00168,,,0.0042
456,0.00168,,,0.0042
457,0.00168,,,0.0042
458,0.0014,,,0.00392
459,0.0014,,,0.00392
460,0.0014,,,0.00392
461,0.0014,,,0.00392
462,0.00112,,,0.00364
463,0.00112,,,0.00364
464,0.00112,,,0.00364
465,0.00112,,,0.00364
466,0.00084,,,0.00336
467,0.00084,,,0.00336
468,0.00056,,,0.00308
469,0.00056,,,0.00308
470,0.00028,,,0.0028
471,0.00028,,,0.0028
472,0.00028,,,0.0028
473,0,,,0.00252
474,0,,,0.00252
475,-0.00028,,,0.00224
476,-0.00028,,,0.00224
477,-0.00056,,,0.00196
478,-0.00056,,,0.00196
479,-0.00056,,,0.00196
480,-0.00056,,,0.00196
481,-0.00084,,,0.00168
482,-0.00084,,,0.00168
483,-0.00084,,,0.00168
484,-0.00084,,,0.00168
485,-0.00084,,,0.00168
486,-0.00112,,,0.0014
487,-0.00112,,,0.0014
488,-0.0014,,,0.00112
489,-0.0014,,,0.00112
490,-0.0014,,,0.00112
491,-0.00168,,,0.00084
492,-0.00168,,,0.00084
493,-0.00168,,,0.00084
494,-0.00168,,,0.00084
495,-0.00168,,,0.00084
496,-0.00196,,,0.00056
497,-0.00196,,,0.00056
498,-0.00196,,,0.00056
499,-0.00196,,,0.00056
500,-0.00196,,,0.00056
501,-0.00196,,,0.00056
502,-0.00224,,,0.00028
503,-0.00224,,,0.00028
504,-0.00224,,,0.00028
505,-0.00224,,,0.00028
506,-0.00224,,,0.00028
507,-0.00224,,,0.00028
508,-0.00224,,,0.00028
509,-0.00224,,,0.00028
510,-0.00224,,,0.00028
511,-0.00224,,,0.00028
512,-0.00224,,,0.00028
513,-0.00224,,,0.00028
514,-0.00224,,,0.00028
515,-0.00224,,,0.00028
516,-0.00224,,,0.00028
517,-0.00224,,,0.00028
518,-0.00224,,,0.00028
519,-0.00224,,,0.00028
520,-0.00224,,,0.00028
521,-0.00196,,,0.00056
522,-0.00196,,,0.00056
523,-0.00196,,,0.00056
524,-0.00196,,,0.00056
525,-0.00196,,,0.00056
526,-0.00196,,,0.00056
527,-0.00168,,,0.00084
528,-0.00168,,,0.00084
529,-0.00168,,,0.00084
530,-0.00168,,,0.00084
531,-0.0014,,,0.00112
532,-0.0014,,,0.00112
533,-0.0014,,,0.00112
534,-0.00112,,,0.0014
535,-0.00112,,,0.0014
536,-0.00112,,,0.0014
537,-0.00112,,,0.0014
538,-0.00084,,,0.00168
539,-0.00084,,,0.00168
540,-0.00084,,,0.00168
541,-0.00056,,,0.00196
542,-0.00056,,,0.00196
543,-0.00056,,,0.00196
544,-0.00028,,,0.00224
545,-0.00028,,,0.00224
546,-0.00028,,,0.00224
547,0,,,0.00252
548,0,,,0.00252
549,0.00028,,,0.0028
550,0.00028,,,0.0028
551,0.00056,,,0.00308
552,0.00056,,,0.00308
553,0.00084,,,0.00336
554,0.00112,,,0.00364
555,0.00112,,,0.00364
556,0.00112,,,0.00364
557,0.0014,,,0.00392
558,0.0014,,,0.00392
559,0.00168,,,0.0042
560,0.00196,,,0.00448
561,0.00196,,,0.00448
562,0.00196,,,0.00448
563,0.00196,,,0.00448
564,0.00224,,,0.00476
565,0.00224,,,0.00476
566,0.00252,,,0.00504
567,0.00252,,,0.00504
568,0.00252,,,0.00504
569,0.0028,,,0.00532
570,0.0028,,,0.00532
571,0.00308,,,0.0056
572,0.00308,,,0.0056
573,0.00336,,,0.00588
574,0.00336,,,0.00588
575,0.00336,,,0.00588
576,0.00364,,,0.00616
577,0.00364,,,0.00616
578,0.00364,,,0.00616
579,0.00364,,,0.00616
580,0.00392,,,0.00644
581,0.00392,,,0.00644
582,0.00392,,,0.00644
583,0.00392,,,0.00644
584,0.0042,,,0.00672
585,0.0042,,,0.00672
586,0.00448,,,0.007
587,0.00448,,,0.007
588,0.00448,,,0.007
589,0.00448,,,0.007
590,0.00476,,,0.00728
591,0.00476,,,0.00728
592,0.00476,,,0.00728
593,0.00476,,,0.00728
594,0.00504,,,0.00756
595,0.00504,,,0.00756
596,0.00504,,,0.00756
597,0.00504,,,0.00756
598,0.00504,,,0.00756
599,0.00504,,,0.00756
600,0.00504,,,0.00756
601,0.00504,,,0.00756
602,0.00504,,,0.00756
603,0.00504,,,0.00756
604,0.00504,,,0.00756
605,0.00504,,,0.00756
606,0.00504,,,0.00756
607,0.00504,,,0.00756
608,0.00532,,,0.00784
609,0.00532,,,0.00784
610,0.00532,,,0.00784
611,0.00532,,,0.00784
612,0.00532,,,0.00784
613,0.00532,,,0.00784
614,0.00532,,,0.00784
615,0.00532,,,0.00784
616,0.00532,,,0.00784
617,0.00532,,,0.00784
618,0.00532,,,0.00784
619,0.00532,,,0.00784
620,0.00532,,,0.00784
621,0.00532,,,0.00784
622,0.00532,,,0.00784
623,0.00532,,,0.00784
624,0.00532,,,0.00784
625,0.00532,,,0.00784
626,0.00532,,,0.00784
627,0.00532,,,0.00784
628,0.00504,,,0.00756
629,0.00504,,,0.00756
630,0.00504,,,0.00756
631,0.00504,,,0.00756
632,0.00476,,,0.00728
633,0.00476,,,0.00728
634,0.00476,,,0.00728
635,0.00476,,,0.00728
636,0.00476,,,0.00728
637,0.00476,,,0.00728
638,0.00476,,,0.00728
639,0.00476,,,0.00728
640,0.00476,,,0.00728
641,0.00448,,,0.007
642,0.00448,,,0.007
643,0.00448,,,0.007
644,0.00448,,,0.007
645,0.00448,,,0.007
646,0.0042,,,0.00672
647,0.0042,,,0.00672
648,0.0042,,,0.00672
649,0.00392,,,0.00644
650,0.00392,,,0.00644
651,0.00392,,,0.00644
652,0.00392,,,0.00644
653,0.00392,,,0.00644
654,0.00364,,,0.00616
655,0.00364,,,0.00616
656,0.00336,,,0.00588
657,0.00336,,,0.00588
658,0.00336,,,0.00588
659,0.00308,,,0.0056
660,0.00308,,,0.0056
661,0.0028,,,0.00532
662,0.0028,,,0.00532
663,0.00252,,,0.00504
664,0.00252,,,0.00504
665,0.00252,,,0.00504
666,0.00224,,,0.00476
667,0.00224,,,0.00476
668,0.00224,,,0.00476
669,0.00224,,,0.00476
670,0.00196,,,0.00448
671,0.00196,,,0.00448
672,0.00168,,,0.0042
673,0.00168,,,0.0042
674,0.0014,,,0.00392
675,0.0014,,,0.00392
676,0.00112,,,0.00364
677,0.00112,,,0.00364
678,0.00084,,,0.00336
679,0.00084,,,0.00336
680,0.00056,,,0.00308
681,0.00056,,,0.00308
682,0.00056,,,0.00308
683,0.00056,,,0.00308
684,0.00028,,,0.0028
685,0.00028,,,0.0028
686,0.00028,,,0.0028
687,0.00028,,,0.0028
688,0,,,0.00252
689,0,,,0.00252
690,0,,,0.00252
691,-0.00028,,,0.00224
692,-0.00028,,,0.00224
693,-0.00028,,,0.00224
694,-0.00056,,,0.00196
695,-0.00056,,,0.00196
696,-0.00056,,,0.00196
697,-0.00084,,,0.00168
698,-0.00084,,,0.00168
699,-0.00084,,,0.00168
700,-0.00084,,,0.00168
701,-0.00084,,,0.00168
702,-0.00112,,,0.0014
703,-0.00112,,,0.0014
704,-0.00112,,,0.0014
705,-0.00112,,,0.0014
706,-0.00112,,,0.0014
707,-0.00112,,,0.0014
708,-0.00112,,,0.0014
709,-0.00112,,,0.0014
710,-0.00112,,,0.0014
711,-0.00112,,,0.0014
712,-0.00112,,,0.0014
713,-0.0014,,,0.00112
714,-0.0014,,,0.00112
715,-0.0014,,,0.00112
716,-0.0014,,,0.00112
717,-0.0014,,,0.00112
718,-0.0014,,,0.00112
719,-0.0014,,,0.00112
720,-0.00112,,,0.0014
721,-0.00112,,,0.0014
722,-0.00112,,,0.0014
723,-0.00112,,,0.0014
724,-0.00112,,,0.0014
725,-0.00084,,,0.00168
726,-0.00084,,,0.00168
727,-0.00084,,,0.00168
728,-0.00084,,,0.00168
729,-0.00084,,,0.00168
730,-0.00056,,,0.00196
731,-0.00056,,,0.00196
732,-0.00056,,,0.00196
733,-0.00028,,,0.00224
734,-0.00028,,,0.00224
735,-0.00028,,,0.00224
736,0,,,0.00252
737,0,,,0.00252
738,0,,,0.00252
739,0.00028,,,0.0028
740,0.00028,,,0.0028
741,0.00056,,,0.00308
742,0.00056,,,0.00308
743,0.00084,,,0.00336
744,0.00084,,,0.00336
745,0.00112,,,0.00364
746,0.00112,,,0.00364
747,0.0014,,,0.00392
748,0.0014,,,0.00392
749,0.00168,,,0.0042
750,0.00168,,,0.0042
751,0.00196,,,0.00448
752,0.00196,,,0.00448
753,0.00224,,,0.00476
754,0.00224,,,0.00476
755,0.00252,,,0.00504
756,0.00252,,,0.00504
757,0.0028,,,0.00532
758,0.0028,,,0.00532
759,0.00308,,,0.0056
760,0.00308,,,0.0056
761,0.00336,,,0.00588
762,0.00336,,,0.00588
763,0.00336,,,0.00588
764,0.00336,,,0.00588
765,0.00364,,,0.00616
766,0.00364,,,0.00616
767,0.00364,,,0.00616
768,0.00392,,,0.00644
769,0.00392,,,0.00644
770,0.0042,,,0.00672
771,0.0042,,,0.00672
772,0.00448,,,0.007
773,0.00448,,,0.007
774,0.00448,,,0.007
775,0.00448,,,0.007
776,0.00476,,,0.00728
777,0.00476,,,0.00728
778,0.00504,,,0.00756
779,0.00504,,,0.00756
780,0.00532,,,0.00784
781,0.00532,,,0.00784
782,0.00532,,,0.00784
783,0.0056,,,0.00812
784,0.0056,,,0.00812
785,0.0056,,,0.00812
786,0.0056,,,0.00812
787,0.00588,,,0.0084
788,0.00588,,,0.0084
789,0.00616,,,0.00868
790,0.00616,,,0.00868
791,0.00644,,,0.00896
792,0.00644,,,0.00896
793,0.00644,,,0.00896
794,0.00644,,,0.00896
795,0.00644,,,0.00896
796,0.00672,,,0.00924
797,0.00672,,,0.00924
798,0.00672,,,0.00924
799,0.00672,,,0.00924
800,0.00672,,,0.00924
801,0.007,,,0.00952
802,0.007,,,0.00952
803,0.007,,,0.00952
804,0.007,,,0.00952
805,0.007,,,0.00952
806,0.007,,,0.00952
807,0.007,,,0.00952
808,0.007,,,0.00952
809,0.007,,,0.00952
810,0.007,,,0.00952
811,0.007,,,0.00952
812,0.007,,,0.00952
813,0.007,,,0.00952
814,0.007,,,0.00952
815,0.007,,,0.00952
816,0.007,,,0.00952
817,0.007,,,0.00952
818,0.00728,,,0.0098
819,0.00728,,,0.0098
820,0.00728,,,0.0098
821,0.00728,,,0.0098
822,0.00728,,,0.0098
823,0.00728,,,0.0098
824,0.00728,,,0.0098
825,0.00728,,,0.0098
826,0.00728,,,0.0098
827,0.00728,,,0.0098
828,0.00728,,,0.0098
829,0.00728,,,0.0098
830,0.00728,,,0.0098
831,0.00728,,,0.0098
832,0.00728,,,0.0098
833,0.00728,,,0.0098
834,0.00728,,,0.0098
835,0.00728,,,0.0098
836,0.00728,,,0.0098
837,0.00728,,,0.0098
838,0.00728,,,0.0098
839,0.00728,,,0.0098
840,0.00728,,,0.0098
841,0.00728,,,0.0098
842,0.00728,,,0.0098
843,0.00728,,,0.0098
844,0.007,,,0.00952
845,0.007,,,0.00952
846,0.007,,,0.00952
847,0.007,,,0.00952
848,0.00672,,,0.00924
849,0.00672,,,0.00924
850,0.00672,,,0.00924
851,0.00672,,,0.00924
852,0.00672,,,0.00924
853,0.00644,,,0.00896
854,0.00644,,,0.00896
855,0.00644,,,0.00896
856,0.00616,,,0.00868
857,0.00616,,,0.00868
858,0.00616,,,0.00868
859,0.00588,,,0.0084
860,0.00588,,,0.0084
861,0.00588,,,0.0084
862,0.00588,,,0.0084
863,0.00588,,,0.0084
864,0.0056,,,0.00812
865,0.0056,,,0.00812
866,0.00532,,,0.00784
867,0.00532,,,0.00784
868,0.00532,,,0.00784
869,0.00504,,,0.00756
870,0.00504,,,0.00756
871,0.00504,,,0.00756
872,0.00504,,,0.00756
873,0.00476,,,0.00728
874,0.00476,,,0.00728
875,0.00448,,,0.007
876,0.00448,,,0.007
877,0.00448,,,0.007
878,0.0042,,,0.00672
879,0.0042,,,0.00672
880,0.00392,,,0.00644
881,0.00392,,,0.00644
882,0.00364,,,0.00616
883,0.00364,,,0.00616
884,0.00364,,,0.00616
885,0.00364,,,0.00616
886,0.00336,,,0.00588
887,0.00336,,,0.00588
888,0.00308,,,0.0056
889,0.00308,,,0.0056
890,0.00308,,,0.0056
891,0.0028,,,0.00532
892,0.0028,,,0.00532
893,0.0028,,,0.00532
894,0.0028,,,0.00532
895,0.0028,,,0.00532
896,0.0028,,,0.00532
897,0.00252,,,0.00504
898,0.00252,,,0.00504
899,0.00252,,,0.00504
900,0.00252,,,0.00504
901,0.00252,,,0.00504
902,0.00252,,,0.00504
903,0.00252,,,0.00504
904,0.00224,,,0.00476
905,0.00224,,,0.00476
906,0.00196,,,0.00448
907,0.00196,,,0.00448
908,0.00196,,,0.00448
909,0.00196,,,0.00448
910,0.00168,,,0.0042
911,0.00168,,,0.0042
912,0.00168,,,0.0042
913,0.00168,,,0.0042
914,0.00168,,,0.0042
915,0.0014,,,0.00392
916,0.0014,,,0.00392
917,0.00112,,,0.00364
918,0.00112,,,0.00364
919,0.00112,,,0.00364
920,0.00084,,,0.00336
921,0.00084,,,0.00336
922,0.00084,,,0.00336
923,0.00084,,,0.00336
924,0.00084,,,0.00336
925,0.00084,,,0.00336
