C2/2.8.7.5.csv

X,CH1,Start,Increment,adjusted,
Sequence,VOLT,4.75E-05,1.00E-06,,
0,-0.00196,,,0.00028,0
1,-0.00196,,,0.00028,0.06
2,-0.00196,,,0.00028,0.12
3,-0.00196,,,0.00028,0.18
4,-0.00196,,,0.00028,0.24
5,-0.00196,,,0.00028,0.3
6,-0.00196,,,0.00028,0.36
7,-0.00196,,,0.00028,0.42
8,-0.00196,,,0.00028,0.48
9,-0.00196,,,0.00028,0.54
10,-0.00196,,,0.00028,0.6
11,-0.00196,,,0.00028,0.66
12,-0.00224,,,0.00028,0.72
13,-0.00196,,,0.00028,0.78
14,-0.00196,,,0.00028,0.84
15,-0.00196,,,0.00028,0.9
16,-0.00196,,,0.00028,0.96
17,-0.00196,,,0.00028,1.02
18,-0.00196,,,0.00028,1.08
19,-0.00196,,,0.00028,1.14
20,-0.00196,,,0.00028,1.2
21,-0.00224,,,0.00028,1.26
22,-0.00224,,,0.00028,1.32
23,-0.00196,,,0.00028,1.38
24,-0.00196,,,0.00028,1.44
25,-0.00196,,,0.00028,1.5
26,-0.00196,,,0,1.56
27,-0.00196,,,0,1.62
28,-0.00224,,,0.00028,1.68
29,-0.00196,,,0.00028,1.74
30,-0.00196,,,0.00028,1.8
31,-0.00196,,,0.00028,1.86
32,-0.00196,,,0.00028,1.92
33,-0.00196,,,0.00028,1.98
34,-0.00196,,,0.00028,2.04
35,-0.00196,,,0.00028,2.1
36,-0.00196,,,0.00028,2.16
37,-0.00196,,,0.00028,2.22
38,-0.00196,,,0.00028,2.28
39,-0.00196,,,0.00028,2.34
40,-0.00196,,,0.00028,2.4
41,-0.00196,,,0.00028,2.46
42,-0.00196,,,0.00028,2.52
43,-0.00196,,,0.00028,2.58
44,-0.00196,,,0.00028,2.64
45,-0.00196,,,0.00028,2.7
46,-0.00196,,,0.00028,2.76
47,-0.00196,,,0.00028,2.82
48,-0.00196,,,0.00028,2.88
49,-0.00196,,,0.00028,2.94
50,-0.00196,,,0.00028,3
51,-0.00196,,,0,3.06
52,-0.00196,,,0.00028,3.12
53,-0.00196,,,0.00028,3.18
54,-0.00196,,,0.00028,3.24
55,-0.00196,,,0.00028,3.3
56,-0.00196,,,0.00028,3.36
57,-0.00196,,,0,3.42
58,-0.00196,,,0,3.48
59,-0.00196,,,0,3.54
60,-0.00196,,,0,3.6
61,-0.00224,,,0.00028,3.66
62,-0.00224,,,0.00028,3.72
63,-0.00196,,,0.00028,3.78
64,-0.00196,,,0.00028,3.84
65,-0.00196,,,0.00028,3.9
66,-0.00196,,,0,3.96
67,-0.00196,,,0,4.02
68,-0.00196,,,0.00028,4.08
69,-0.00196,,,0.00028,4.14
70,-0.00196,,,0.00028,4.2
71,-0.00196,,,0.00028,4.26
72,-0.00196,,,0.00028,4.32
73,-0.00196,,,0,4.38
74,-0.00196,,,0,4.44
75,-0.00196,,,0.00028,4.5
76,-0.00196,,,0.00028,4.56
77,-0.00196,,,0.00028,4.62
78,-0.00196,,,0.00028,4.68
79,-0.00196,,,0.00028,4.74
80,-0.00196,,,0.00028,4.8
81,-0.00196,,,0.00028,4.86
82,-0.00196,,,0,4.92
83,-0.00196,,,0.00028,4.98
84,-0.00196,,,0.00028,5.04
85,-0.00196,,,0.00028,5.1
86,-0.00224,,,0.00028,5.16
87,-0.00196,,,0.00028,5.22
88,-0.00196,,,0.00028,5.28
89,-0.00196,,,0.00028,5.34
90,-0.00196,,,0,5.4
91,-0.00196,,,0,5.46
92,-0.00224,,,0.00028,5.52
93,-0.00224,,,0.00028,5.58
94,-0.00224,,,0.00028,5.64
95,-0.00224,,,0.00028,5.7
96,-0.00196,,,0.00028,5.76
97,-0.00196,,,0.00028,5.82
98,-0.00196,,,0.00028,5.88
99,-0.00196,,,0,5.94
100,-0.00196,,,0.00028,6
101,-0.00224,,,0.00028,6.06
102,-0.00224,,,0.00028,6.12
103,-0.00196,,,0.00056,6.18
104,-0.00196,,,0.00056,6.24
105,-0.00196,,,0.00056,6.3
106,-0.00196,,,0.00056,6.36
107,-0.00196,,,0.00056,6.42
108,-0.00224,,,0.00056,6.48
109,-0.00224,,,0.00084,6.54
110,-0.00196,,,0.00084,6.6
111,-0.00196,,,0.00084,6.66
112,-0.00196,,,0.00084,6.72
113,-0.00196,,,0.00084,6.78
114,-0.00196,,,0.00084,6.84
115,-0.00196,,,0.00112,6.9
116,-0.00196,,,0.00112,6.96
117,-0.00224,,,0.0014,7.02
118,-0.00196,,,0.0014,7.08
119,-0.00196,,,0.0014,7.14
120,-0.00196,,,0.0014,7.2
121,-0.00196,,,0.0014,7.26
122,-0.00196,,,0.00168,7.32
123,-0.00196,,,0.00168,7.38
124,-0.00196,,,0.00168,7.44
125,-0.00224,,,0.00168,7.5
126,-0.00224,,,0.00168,7.56
127,-0.00196,,,0.00196,7.62
128,-0.00196,,,0.00196,7.68
129,-0.00196,,,0.00196,7.74
130,-0.00196,,,0.00196,7.8
131,-0.00196,,,0.00224,7.86
132,-0.00196,,,0.00224,7.92
133,-0.00196,,,0.00224,7.98
134,-0.00224,,,0.00252,8.04
135,-0.00196,,,0.00252,8.1
136,-0.00196,,,0.00252,8.16
137,-0.00196,,,0.00252,8.22
138,-0.00168,,,0.00252,8.28
139,-0.00168,,,0.00252,8.34
140,-0.00168,,,0.0028,8.4
141,-0.00168,,,0.0028,8.46
142,-0.00168,,,0.0028,8.52
143,-0.00168,,,0.0028,8.58
144,-0.0014,,,0.0028,8.64
145,-0.0014,,,0.00308,8.7
146,-0.0014,,,0.00308,8.76
147,-0.0014,,,0.00308,8.82
148,-0.0014,,,0.00336,8.88
149,-0.0014,,,0.00336,8.94
150,-0.00112,,,0.00336,9
151,-0.00112,,,0.00336,9.06
152,-0.00084,,,0.00364,9.12
153,-0.00084,,,0.00364,9.18
154,-0.00084,,,0.00364,9.24
155,-0.00084,,,0.00364,9.3
156,-0.00084,,,0.00364,9.36
157,-0.00056,,,0.00364,9.42
158,-0.00056,,,0.00364,9.48
159,-0.00056,,,0.00364,9.54
160,-0.00056,,,0.00392,9.6
161,-0.00056,,,0.00392,9.66
162,-0.00028,,,0.00392,9.72
163,-0.00028,,,0.00392,9.78
164,-0.00028,,,0.00392,9.84
165,-0.00028,,,0.00392,9.9
166,0,,,0.00392,9.96
167,0,,,0.00392,10.02
168,0,,,0.00392,10.08
169,0.00028,,,0.00392,10.14
170,0.00028,,,0.00392,10.2
171,0.00028,,,0.00392,10.26
172,0.00028,,,0.00392,10.32
173,0.00028,,,0.00392,10.38
174,0.00028,,,0.00392,10.44
175,0.00056,,,0.00392,10.5
176,0.00056,,,0.00392,10.56
177,0.00056,,,0.0042,10.62
178,0.00056,,,0.0042,10.68
179,0.00056,,,0.0042,10.74
180,0.00084,,,0.0042,10.8
181,0.00084,,,0.0042,10.86
182,0.00084,,,0.00448,10.92
183,0.00112,,,0.00448,10.98
184,0.00112,,,0.00448,11.04
185,0.00112,,,0.00448,11.1
186,0.00112,,,0.00448,11.16
187,0.0014,,,0.00448,11.22
188,0.0014,,,0.00448,11.28
189,0.0014,,,0.00448,11.34
190,0.0014,,,0.00448,11.4
191,0.0014,,,0.00448,11.46
192,0.0014,,,0.00448,11.52
193,0.0014,,,0.00448,11.58
194,0.0014,,,0.00448,11.64
195,0.00168,,,0.00448,11.7
196,0.00168,,,0.00448,11.76
197,0.00168,,,0.00448,11.82
198,0.00168,,,0.00448,11.88
199,0.00168,,,0.00448,11.94
200,0.00168,,,0.00448,12
201,0.00168,,,0.00448,12.06
202,0.00168,,,0.00448,12.12
203,0.00168,,,0.00448,12.18
204,0.00168,,,0.00448,12.24
205,0.00168,,,0.00448,12.3
206,0.00168,,,0.00448,12.36
207,0.00168,,,0.00448,12.42
208,0.00168,,,0.00448,12.48
209,0.00168,,,0.00448,12.54
210,0.00168,,,0.0042,12.6
211,0.00168,,,0.0042,12.66
212,0.00196,,,0.0042,12.72
213,0.00196,,,0.0042,12.78
214,0.00196,,,0.0042,12.84
215,0.00196,,,0.0042,12.9
216,0.00196,,,0.0042,12.96
217,0.00224,,,0.0042,13.02
218,0.00224,,,0.0042,13.08
219,0.00224,,,0.0042,13.14
220,0.00224,,,0.0042,13.2
221,0.00224,,,0.0042,13.26
222,0.00224,,,0.00392,13.32
223,0.00224,,,0.00392,13.38
224,0.00224,,,0.00392,13.44
225,0.00224,,,0.00364,13.5
226,0.00224,,,0.00364,13.56
227,0.00224,,,0.00364,13.62
228,0.00224,,,0.00364,13.68
229,0.00224,,,0.00364,13.74
230,0.00224,,,0.00364,13.8
231,0.00224,,,0.00336,13.86
232,0.00224,,,0.00336,13.92
233,0.00224,,,0.00336,13.98
234,0.00224,,,0.00336,14.04
235,0.00224,,,0.00308,14.1
236,0.00224,,,0.00308,14.16
237,0.00224,,,0.00308,14.22
238,0.00224,,,0.0028,14.28
239,0.00224,,,0.0028,14.34
240,0.00224,,,0.0028,14.4
241,0.00224,,,0.0028,14.46
242,0.00224,,,0.00252,14.52
243,0.00224,,,0.00252,14.58
244,0.00224,,,0.00252,14.64
245,0.00196,,,0.00252,14.7
246,0.00196,,,0.00252,14.76
247,0.00196,,,0.00224,14.82
248,0.00196,,,0.00224,14.88
249,0.00196,,,0.00224,14.94
250,0.00196,,,0.00224,15
251,0.00196,,,0.00196,15.06
252,0.00196,,,0.00196,15.12
253,0.00196,,,0.00196,15.18
254,0.00196,,,0.00168,15.24
255,0.00196,,,0.00168,15.3
256,0.00196,,,0.00168,15.36
257,0.00168,,,0.00168,15.42
258,0.00168,,,0.00168,15.48
259,0.00168,,,0.00168,15.54
260,0.0014,,,0.0014,15.6
261,0.0014,,,0.0014,15.66
262,0.0014,,,0.0014,15.72
263,0.0014,,,0.0014,15.78
264,0.0014,,,0.0014,15.84
265,0.0014,,,0.00112,15.9
266,0.00112,,,0.00112,15.96
267,0.00112,,,0.00112,16.02
268,0.00112,,,0.00084,16.08
269,0.00112,,,0.00084,16.14
270,0.00084,,,0.00084,16.2
271,0.00084,,,0.00084,16.26
272,0.00084,,,0.00084,16.32
273,0.00056,,,0.00056,16.38
274,0.00056,,,0.00056,16.44
275,0.00056,,,0.00056,16.5
276,0.00056,,,0.00056,16.56
277,0.00028,,,0.00056,16.62
278,0.00028,,,0.00056,16.68
279,0.00028,,,0.00056,16.74
280,0.00028,,,0.00056,16.8
281,0.00028,,,0.00056,16.86
282,0,,,0.00028,16.92
283,0,,,0.00028,16.98
284,0,,,0.00028,17.04
285,0,,,0.00028,17.1
286,-0.00028,,,0.00028,17.16
287,-0.00028,,,0.00028,17.22
288,-0.00028,,,0.00028,17.28
289,-0.00056,,,0.00028,17.34
290,-0.00056,,,0.00028,17.4
291,-0.00056,,,0.00028,17.46
292,-0.00056,,,0.00028,17.52
293,-0.00056,,,0.00028,17.58
294,-0.00056,,,0.00028,17.64
295,-0.00084,,,0.00028,17.7
296,-0.00084,,,0.00028,17.76
297,-0.00084,,,0.00028,17.82
298,-0.00084,,,0.00028,17.88
299,-0.00084,,,0.00056,17.94
300,-0.00112,,,0.00056,18
301,-0.00112,,,0.00056,18.06
302,-0.00112,,,0.00056,18.12
303,-0.0014,,,0.00084,18.18
304,-0.0014,,,0.00084,18.24
305,-0.0014,,,0.00084,18.3
306,-0.0014,,,0.00084,18.36
307,-0.0014,,,0.00084,18.42
308,-0.00168,,,0.00084,18.48
309,-0.00168,,,0.00084,18.54
310,-0.00168,,,0.00084,18.6
311,-0.00168,,,0.00112,18.66
312,-0.00168,,,0.00112,18.72
313,-0.00168,,,0.00112,18.78
314,-0.00168,,,0.0014,18.84
315,-0.00168,,,0.0014,18.9
316,-0.00168,,,0.0014,18.96
317,-0.00196,,,0.00168,19.02
318,-0.00196,,,0.00168,19.08
319,-0.00196,,,0.00196,19.14
320,-0.00196,,,0.00196,19.2
321,-0.00196,,,0.00224,19.26
322,-0.00196,,,0.00224,19.32
323,-0.00196,,,0.00224,19.38
324,-0.00196,,,0.00224,19.44
325,-0.00196,,,0.00252,19.5
326,-0.00196,,,0.00252,19.56
327,-0.00196,,,0.00252,19.62
328,-0.00196,,,0.00252,19.68
329,-0.00196,,,0.0028,19.74
330,-0.00196,,,0.0028,19.8
331,-0.00196,,,0.00308,19.86
332,-0.00196,,,0.00308,19.92
333,-0.00196,,,0.00308,19.98
334,-0.00168,,,0.00336,20.04
335,-0.00168,,,0.00364,20.1
336,-0.00168,,,0.00364,20.16
337,-0.00168,,,0.00392,20.22
338,-0.0014,,,0.00392,20.28
339,-0.0014,,,0.00392,20.34
340,-0.0014,,,0.0042,20.4
341,-0.0014,,,0.0042,20.46
342,-0.0014,,,0.0042,20.52
343,-0.0014,,,0.00448,20.58
344,-0.0014,,,0.00448,20.64
345,-0.0014,,,0.00476,20.7
346,-0.00112,,,0.00476,20.76
347,-0.00112,,,0.00476,20.82
348,-0.00112,,,0.00504,20.88
349,-0.00084,,,0.00504,20.94
350,-0.00084,,,0.00504,21
351,-0.00084,,,0.00532,21.06
352,-0.00056,,,0.00532,21.12
353,-0.00056,,,0.00532,21.18
354,-0.00028,,,0.00532,21.24
355,-0.00028,,,0.0056,21.3
356,0,,,0.0056,21.36
357,0,,,0.0056,21.42
358,0,,,0.0056,21.48
359,0,,,0.0056,21.54
360,0.00028,,,0.0056,21.6
361,0.00028,,,0.0056,21.66
362,0.00028,,,0.00588,21.72
363,0.00028,,,0.00588,21.78
364,0.00056,,,0.00588,21.84
365,0.00056,,,0.00588,21.9
366,0.00084,,,0.00588,21.96
367,0.00084,,,0.00588,22.02
368,0.00084,,,0.00588,22.08
369,0.00112,,,0.00616,22.14
370,0.0014,,,0.00616,22.2
371,0.0014,,,0.00616,22.26
372,0.00168,,,0.00616,22.32
373,0.00168,,,0.00644,22.38
374,0.00168,,,0.00644,22.44
375,0.00196,,,0.00644,22.5
376,0.00196,,,0.00644,22.56
377,0.00196,,,0.00644,22.62
378,0.00224,,,0.00644,22.68
379,0.00224,,,0.00672,22.74
380,0.00252,,,0.00672,22.8
381,0.00252,,,0.00672,22.86
382,0.00252,,,0.00672,22.92
383,0.0028,,,0.00672,22.98
384,0.0028,,,0.00672,23.04
385,0.0028,,,0.00672,23.1
386,0.00308,,,0.00644,23.16
387,0.00308,,,0.00644,23.22
388,0.00308,,,0.00644,23.28
389,0.00308,,,0.00644,23.34
390,0.00336,,,0.00644,23.4
391,0.00336,,,0.00644,23.46
392,0.00336,,,0.00644,23.52
393,0.00336,,,0.00616,23.58
394,0.00336,,,0.00616,23.64
395,0.00336,,,0.00616,23.7
396,0.00336,,,0.00616,23.76
397,0.00364,,,0.00616,23.82
398,0.00364,,,0.00616,23.88
399,0.00364,,,0.00616,23.94
400,0.00364,,,0.00616,24
401,0.00364,,,0.00616,24.06
402,0.00364,,,0.00616,24.12
403,0.00364,,,0.00616,24.18
404,0.00392,,,0.00616,24.24
405,0.00392,,,0.00616,24.3
406,0.00392,,,0.00616,24.36
407,0.00392,,,0.00616,24.42
408,0.0042,,,0.00616,24.48
409,0.0042,,,0.00588,24.54
410,0.0042,,,0.00588,24.6
411,0.0042,,,0.00588,24.66
412,0.0042,,,0.0056,24.72
413,0.0042,,,0.0056,24.78
414,0.00448,,,0.0056,24.84
415,0.00448,,,0.0056,24.9
416,0.00448,,,0.0056,24.96
417,0.00448,,,0.00532,25.02
418,0.00448,,,0.00532,25.08
419,0.00448,,,0.00504,25.14
420,0.00448,,,0.00504,25.2
421,0.0042,,,0.00504,25.26
422,0.0042,,,0.00504,25.32
423,0.0042,,,0.00476,25.38
424,0.0042,,,0.00476,25.44
425,0.0042,,,0.00476,25.5
426,0.0042,,,0.00476,25.56
427,0.0042,,,0.00448,25.62
428,0.00392,,,0.00448,25.68
429,0.00392,,,0.00448,25.74
430,0.00392,,,0.0042,25.8
431,0.00392,,,0.0042,25.86
432,0.00392,,,0.00392,25.92
433,0.00392,,,0.00392,25.98
434,0.00392,,,0.00364,26.04
435,0.00392,,,0.00364,26.1
436,0.00392,,,0.00336,26.16
437,0.00392,,,0.00336,26.22
438,0.00392,,,0.00336,26.28
439,0.00392,,,0.00308,26.34
440,0.00392,,,0.00308,26.4
441,0.00392,,,0.00308,26.46
442,0.00392,,,0.0028,26.52
443,0.00392,,,0.0028,26.58
444,0.00364,,,0.00252,26.64
445,0.00364,,,0.00252,26.7
446,0.00364,,,0.00224,26.76
447,0.00336,,,0.00224,26.82
448,0.00336,,,0.00224,26.88
449,0.00336,,,0.00224,26.94
450,0.00336,,,0.00196,27
451,0.00336,,,0.00196,27.06
452,0.00308,,,0.00196,27.12
453,0.00308,,,0.00168,27.18
454,0.0028,,,0.00168,27.24
455,0.0028,,,0.00168,27.3
456,0.0028,,,0.0014,27.36
457,0.0028,,,0.0014,27.42
458,0.00252,,,0.00112,27.48
459,0.00252,,,0.00112,27.54
460,0.00252,,,0.00112,27.6
461,0.00252,,,0.00084,27.66
462,0.00224,,,0.00084,27.72
463,0.00224,,,0.00084,27.78
464,0.00224,,,0.00084,27.84
465,0.00196,,,0.00084,27.9
466,0.00196,,,0.00056,27.96
467,0.00168,,,0.00056,28.02
468,0.00168,,,0.00056,28.08
469,0.0014,,,0.00056,28.14
470,0.0014,,,0.00056,28.2
471,0.00112,,,0.00056,28.26
472,0.00112,,,0.00056,28.32
473,0.00112,,,0.00056,28.38
474,0.00084,,,0.00056,28.44
475,0.00084,,,0.00028,28.5
476,0.00084,,,0.00028,28.56
477,0.00056,,,0.00028,28.62
478,0.00056,,,0.00028,28.68
479,0.00028,,,0.00028,28.74
480,0.00028,,,0.00028,28.8
481,0,,,0.00028,28.86
482,0,,,0.00028,28.92
483,0,,,0.00028,28.98
484,0,,,0.00028,29.04
485,-0.00028,,,0.00028,29.1
486,-0.00028,,,0.00028,29.16
487,-0.00028,,,0.00028,29.22
488,-0.00056,,,0.00028,29.28
489,-0.00056,,,0.00028,29.34
490,-0.00056,,,0.00028,29.4
491,-0.00084,,,0.00028,29.46
492,-0.00084,,,0.00028,29.52
493,-0.00112,,,0.00056,29.58
494,-0.00112,,,0.00056,29.64
495,-0.00112,,,0.00056,29.7
496,-0.0014,,,0.00056,29.76
497,-0.0014,,,0.00084,29.82
498,-0.0014,,,0.00084,29.88
499,-0.0014,,,0.00084,29.94
500,-0.0014,,,0.00084,30
501,-0.00168,,,0.00084,30.06
502,-0.00168,,,0.00112,30.12
503,-0.00168,,,0.00112,30.18
504,-0.00168,,,0.00112,30.24
505,-0.00168,,,0.0014,30.3
506,-0.00168,,,0.0014,30.36
507,-0.00168,,,0.0014,30.42
508,-0.00168,,,0.00168,30.48
509,-0.00168,,,0.00168,30.54
510,-0.00196,,,0.00196,30.6
511,-0.00196,,,0.00196,30.66
512,-0.00196,,,0.00224,30.72
513,-0.00196,,,0.00224,30.78
514,-0.00196,,,0.00224,30.84
515,-0.00196,,,0.00252,30.9
516,-0.00196,,,0.00252,30.96
517,-0.00196,,,0.0028,31.02
518,-0.00196,,,0.0028,31.08
519,-0.00196,,,0.00308,31.14
520,-0.00196,,,0.00308,31.2
521,-0.00196,,,0.00336,31.26
522,-0.00196,,,0.00364,31.32
523,-0.00196,,,0.00364,31.38
524,-0.00196,,,0.00392,31.44
525,-0.00196,,,0.00392,31.5
526,-0.00196,,,0.00392,31.56
527,-0.00196,,,0.0042,31.62
528,-0.00168,,,0.0042,31.68
529,-0.00168,,,0.00448,31.74
530,-0.00168,,,0.00448,31.8
531,-0.00168,,,0.00476,31.86
532,-0.0014,,,0.00476,31.92
533,-0.0014,,,0.00476,31.98
534,-0.0014,,,0.00504,32.04
535,-0.0014,,,0.00532,32.1
536,-0.0014,,,0.00532,32.16
537,-0.00112,,,0.0056,32.22
538,-0.00112,,,0.0056,32.28
539,-0.00112,,,0.00588,32.34
540,-0.00084,,,0.00588,32.4
541,-0.00084,,,0.00588,32.46
542,-0.00084,,,0.00616,32.52
543,-0.00056,,,0.00644,32.58
544,-0.00056,,,0.00644,32.64
545,-0.00028,,,0.00672,32.7
546,-0.00028,,,0.00672,32.76
547,0,,,0.007,32.82
548,0,,,0.007,32.88
549,0,,,0.007,32.94
550,0.00028,,,0.00728,33
551,0.00028,,,0.00728,33.06
552,0.00056,,,0.00728,33.12
553,0.00056,,,0.00728,33.18
554,0.00084,,,0.00756,33.24
555,0.00084,,,0.00756,33.3
556,0.00112,,,0.00784,33.36
557,0.0014,,,0.00784,33.42
558,0.0014,,,0.00784,33.48
559,0.00168,,,0.00812,33.54
560,0.00168,,,0.00812,33.6
561,0.00168,,,0.00812,33.66
562,0.00196,,,0.00812,33.72
563,0.00196,,,0.0084,33.78
564,0.00224,,,0.0084,33.84
565,0.00224,,,0.0084,33.9
566,0.00252,,,0.0084,33.96
567,0.00252,,,0.0084,34.02
568,0.00252,,,0.0084,34.08
569,0.0028,,,0.0084,34.14
570,0.00308,,,0.0084,34.2
571,0.00308,,,0.00868,34.26
572,0.00336,,,0.00868,34.32
573,0.00336,,,0.00868,34.38
574,0.00364,,,0.00868,34.44
575,0.00364,,,0.00868,34.5
576,0.00364,,,0.00868,34.56
577,0.00392,,,0.00868,34.62
578,0.0042,,,0.00868,34.68
579,0.0042,,,0.00868,34.74
580,0.00448,,,0.00868,34.8
581,0.00448,,,0.00868,34.86
582,0.00476,,,0.00868,34.92
583,0.00476,,,0.00868,34.98
584,0.00476,,,0.00868,35.04
585,0.00504,,,0.00868,35.1
586,0.00504,,,0.00868,35.16
587,0.00504,,,0.00868,35.22
588,0.00504,,,0.00868,35.28
589,0.00532,,,0.00868,35.34
590,0.00532,,,0.00868,35.4
591,0.0056,,,0.00868,35.46
592,0.0056,,,0.00868,35.52
593,0.0056,,,0.00868,35.58
594,0.00588,,,0.00868,35.64
595,0.00588,,,0.00868,35.7
596,0.00588,,,0.00868,35.76
597,0.00588,,,0.0084,35.82
598,0.00616,,,0.0084,35.88
599,0.00616,,,0.0084,35.94
600,0.00616,,,0.0084,36
601,0.00616,,,0.0084,36.06
602,0.00616,,,0.0084,36.12
603,0.00616,,,0.00812,36.18
604,0.00616,,,0.00812,36.24
605,0.00616,,,0.00812,36.3
606,0.00644,,,0.00812,36.36
607,0.00644,,,0.00812,36.42
608,0.00644,,,0.00812,36.48
609,0.00644,,,0.00812,36.54
610,0.00644,,,0.00784,36.6
611,0.00644,,,0.00784,36.66
612,0.00644,,,0.00784,36.72
613,0.00644,,,0.00784,36.78
614,0.00644,,,0.00756,36.84
615,0.00644,,,0.00756,36.9
616,0.00644,,,0.00756,36.96
617,0.00644,,,0.00756,37.02
618,0.00644,,,0.00728,37.08
619,0.00644,,,0.00728,37.14
620,0.00644,,,0.007,37.2
621,0.00644,,,0.007,37.26
622,0.00644,,,0.007,37.32
623,0.00644,,,0.00672,37.38
624,0.00644,,,0.00672,37.44
625,0.00644,,,0.00672,37.5
626,0.00644,,,0.00644,37.56
627,0.00644,,,0.00644,37.62
628,0.00644,,,0.00616,37.68
629,0.00644,,,0.00616,37.74
630,0.00644,,,0.00588,37.8
631,0.00644,,,0.00588,37.86
632,0.00616,,,0.0056,37.92
633,0.00616,,,0.0056,37.98
634,0.00616,,,0.00532,38.04
635,0.00616,,,0.00532,38.1
636,0.00616,,,0.00504,38.16
637,0.00616,,,0.00504,38.22
638,0.00588,,,0.00476,38.28
639,0.00588,,,0.00476,38.34
640,0.00588,,,0.00448,38.4
641,0.00588,,,0.00448,38.46
642,0.00588,,,0.00448,38.52
643,0.00588,,,0.0042,38.58
644,0.00588,,,0.0042,38.64
645,0.0056,,,0.0042,38.7
646,0.0056,,,0.00392,38.76
647,0.0056,,,0.00392,38.82
648,0.0056,,,0.00392,38.88
649,0.00532,,,0.00364,38.94
650,0.00532,,,0.00364,39
651,0.00532,,,0.00336,39.06
652,0.00532,,,0.00336,39.12
653,0.00504,,,0.00308,39.18
654,0.00504,,,0.00308,39.24
655,0.00476,,,0.00308,39.3
656,0.00476,,,0.0028,39.36
657,0.00476,,,0.0028,39.42
658,0.00448,,,0.0028,39.48
659,0.00448,,,0.00252,39.54
660,0.00448,,,0.00252,39.6
661,0.0042,,,0.00224,39.66
662,0.0042,,,0.00224,39.72
663,0.00392,,,0.00224,39.78
664,0.00392,,,0.00196,39.84
665,0.00364,,,0.00196,39.9
666,0.00364,,,0.00196,39.96
667,0.00336,,,0.00196,40.02
668,0.00336,,,0.00168,40.08
669,0.00308,,,0.00168,40.14
670,0.00308,,,0.00168,40.2
671,0.0028,,,0.00168,40.26
672,0.0028,,,0.00168,40.32
673,0.00252,,,0.00168,40.38
674,0.00252,,,0.0014,40.44
675,0.00224,,,0.0014,40.5
676,0.00224,,,0.0014,40.56
677,0.00224,,,0.0014,40.62
678,0.00196,,,0.0014,40.68
679,0.00196,,,0.0014,40.74
680,0.00196,,,0.0014,40.8
681,0.00168,,,0.0014,40.86
682,0.00168,,,0.0014,40.92
683,0.00168,,,0.0014,40.98
684,0.0014,,,0.0014,41.04
685,0.0014,,,0.0014,41.1
686,0.00112,,,0.0014,41.16
687,0.00112,,,0.0014,41.22
688,0.00084,,,0.0014,41.28
689,0.00084,,,0.0014,41.34
690,0.00084,,,0.0014,41.4
691,0.00056,,,0.00112,41.46
692,0.00056,,,0.00112,41.52
693,0.00056,,,0.00112,41.58
694,0.00028,,,0.00112,41.64
695,0.00028,,,0.0014,41.7
696,0,,,0.0014,41.76
697,0,,,0.0014,41.82
698,0,,,0.00168,41.88
699,-0.00028,,,0.00168,41.94
700,-0.00028,,,0.00168,42
701,-0.00028,,,0.00168,42.06
702,-0.00028,,,0.00196,42.12
703,-0.00056,,,0.00196,42.18
704,-0.00056,,,0.00224,42.24
705,-0.00056,,,0.00224,42.3
706,-0.00056,,,0.00224,42.36
707,-0.00056,,,0.00224,42.42
708,-0.00056,,,0.00252,42.48
709,-0.00084,,,0.00252,42.54
710,-0.00084,,,0.0028,42.6
711,-0.00084,,,0.0028,42.66
712,-0.00084,,,0.00308,42.72
713,-0.00084,,,0.00308,42.78
714,-0.00084,,,0.00336,42.84
715,-0.00084,,,0.00336,42.9
716,-0.00084,,,0.00364,42.96
717,-0.00084,,,0.00364,43.02
718,-0.00084,,,0.00392,43.08
719,-0.00084,,,0.00392,43.14
720,-0.00084,,,0.0042,43.2
721,-0.00084,,,0.0042,43.26
722,-0.00084,,,0.00448,43.32
723,-0.00084,,,0.00448,43.38
724,-0.00084,,,0.00476,43.44
725,-0.00084,,,0.00504,43.5
726,-0.00112,,,0.00504,43.56
727,-0.00112,,,0.00532,43.62
728,-0.00112,,,0.00532,43.68
729,-0.00112,,,0.0056,43.74
730,-0.00084,,,0.0056,43.8
