C2/C2_rawdata/2.8.1.7.csv

X,CH1,Start,Increment
Sequence,VOLT,4.75E-05,1.00E-06
0,-2.24E-03,,
1,-2.24E-03,,
2,-2.24E-03,,
3,-2.24E-03,,
4,-2.24E-03,,
5,-2.52E-03,,
6,-2.52E-03,,
7,-2.52E-03,,
8,-2.52E-03,,
9,-2.52E-03,,
10,-2.24E-03,,
11,-2.24E-03,,
12,-2.24E-03,,
13,-2.24E-03,,
14,-2.52E-03,,
15,-2.52E-03,,
16,-2.52E-03,,
17,-2.52E-03,,
18,-2.52E-03,,
19,-2.52E-03,,
20,-2.52E-03,,
21,-2.52E-03,,
22,-2.52E-03,,
23,-2.52E-03,,
24,-2.52E-03,,
25,-2.52E-03,,
26,-2.52E-03,,
27,-2.24E-03,,
28,-2.52E-03,,
29,-2.52E-03,,
30,-2.52E-03,,
31,-2.52E-03,,
32,-2.52E-03,,
33,-2.24E-03,,
34,-2.52E-03,,
35,-2.24E-03,,
36,-2.24E-03,,
37,-2.24E-03,,
38,-2.52E-03,,
39,-2.24E-03,,
40,-2.24E-03,,
41,-2.24E-03,,
42,-2.24E-03,,
43,-2.24E-03,,
44,-2.24E-03,,
45,-2.24E-03,,
46,-2.24E-03,,
47,-2.24E-03,,
48,-2.24E-03,,
49,-2.52E-03,,
50,-2.24E-03,,
51,-2.24E-03,,
52,-2.24E-03,,
53,-2.24E-03,,
54,-2.24E-03,,
55,-2.52E-03,,
56,-2.24E-03,,
57,-2.52E-03,,
58,-2.52E-03,,
59,-2.24E-03,,
60,-2.24E-03,,
61,-2.24E-03,,
62,-2.24E-03,,
63,-2.24E-03,,
64,-2.52E-03,,
65,-2.52E-03,,
66,-2.24E-03,,
67,-2.24E-03,,
68,-2.24E-03,,
69,-2.24E-03,,
70,-2.24E-03,,
71,-2.52E-03,,
72,-2.52E-03,,
73,-2.24E-03,,
74,-2.24E-03,,
75,-2.52E-03,,
76,-2.24E-03,,
77,-2.24E-03,,
78,-2.24E-03,,
79,-2.24E-03,,
80,-2.24E-03,,
81,-2.24E-03,,
82,-2.24E-03,,
83,-2.24E-03,,
84,-2.24E-03,,
85,-2.24E-03,,
86,-2.24E-03,,
87,-2.24E-03,,
88,-2.24E-03,,
89,-2.52E-03,,
90,-2.52E-03,,
91,-2.52E-03,,
92,-2.24E-03,,
93,-2.24E-03,,
94,-2.24E-03,,
95,-2.24E-03,,
96,-2.24E-03,,
97,-2.24E-03,,
98,-2.52E-03,,
99,-2.24E-03,,
100,-2.24E-03,,
101,-2.24E-03,,
102,-2.24E-03,,
103,-2.24E-03,,
104,-2.24E-03,,
105,-2.52E-03,,
106,-2.24E-03,,
107,-2.24E-03,,
108,-2.24E-03,,
109,-2.24E-03,,
110,-2.24E-03,,
111,-2.24E-03,,
112,-2.24E-03,,
113,-2.24E-03,,
114,-2.52E-03,,
115,-2.52E-03,,
116,-2.24E-03,,
117,-2.24E-03,,
118,-2.24E-03,,
119,-2.24E-03,,
120,-2.24E-03,,
121,-2.52E-03,,
122,-2.24E-03,,
123,-2.24E-03,,
124,-2.24E-03,,
125,-2.24E-03,,
126,-2.24E-03,,
127,-2.24E-03,,
128,-2.24E-03,,
129,-2.24E-03,,
130,-2.24E-03,,
131,-2.24E-03,,
132,-1.96E-03,,
133,-1.96E-03,,
134,-1.96E-03,,
135,-1.96E-03,,
136,-1.68E-03,,
137,-1.68E-03,,
138,-1.68E-03,,
139,-1.68E-03,,
140,-1.68E-03,,
141,-1.68E-03,,
142,-1.68E-03,,
143,-1.68E-03,,
144,-1.68E-03,,
145,-1.40E-03,,
146,-1.40E-03,,
147,-1.40E-03,,
148,-1.40E-03,,
149,-1.12E-03,,
150,-1.12E-03,,
151,-1.12E-03,,
152,-8.40E-04,,
153,-8.40E-04,,
154,-8.40E-04,,
155,-8.40E-04,,
156,-8.40E-04,,
157,-8.40E-04,,
158,-8.40E-04,,
159,-8.40E-04,,
160,-5.60E-04,,
161,-5.60E-04,,
162,-5.60E-04,,
163,-5.60E-04,,
164,-5.60E-04,,
165,-2.80E-04,,
166,-2.80E-04,,
167,-2.80E-04,,
168,0.00E+00,,
169,0.00E+00,,
170,0.00E+00,,
171,0.00E+00,,
172,0.00E+00,,
173,0.00E+00,,
174,2.80E-04,,
175,2.80E-04,,
176,2.80E-04,,
177,2.80E-04,,
178,2.80E-04,,
179,2.80E-04,,
180,2.80E-04,,
181,2.80E-04,,
182,2.80E-04,,
183,2.80E-04,,
184,2.80E-04,,
185,2.80E-04,,
186,5.60E-04,,
187,5.60E-04,,
188,5.60E-04,,
189,5.60E-04,,
190,5.60E-04,,
191,5.60E-04,,
192,5.60E-04,,
193,5.60E-04,,
194,5.60E-04,,
195,5.60E-04,,
196,5.60E-04,,
197,5.60E-04,,
198,5.60E-04,,
199,5.60E-04,,
200,5.60E-04,,
201,5.60E-04,,
202,5.60E-04,,
203,5.60E-04,,
204,5.60E-04,,
205,5.60E-04,,
206,5.60E-04,,
207,5.60E-04,,
208,8.40E-04,,
209,8.40E-04,,
210,8.40E-04,,
211,8.40E-04,,
212,1.12E-03,,
213,1.12E-03,,
214,1.12E-03,,
215,1.12E-03,,
216,1.12E-03,,
217,1.12E-03,,
218,1.12E-03,,
219,1.12E-03,,
220,1.40E-03,,
221,1.40E-03,,
222,1.40E-03,,
223,1.40E-03,,
224,1.40E-03,,
225,1.40E-03,,
226,1.40E-03,,
227,1.40E-03,,
228,1.40E-03,,
229,1.40E-03,,
230,1.40E-03,,
231,1.40E-03,,
232,1.40E-03,,
233,1.40E-03,,
234,1.12E-03,,
235,1.12E-03,,
236,1.12E-03,,
237,1.12E-03,,
238,8.40E-04,,
239,8.40E-04,,
240,8.40E-04,,
241,8.40E-04,,
242,8.40E-04,,
243,8.40E-04,,
244,8.40E-04,,
245,8.40E-04,,
246,8.40E-04,,
247,8.40E-04,,
248,8.40E-04,,
249,5.60E-04,,
250,5.60E-04,,
251,5.60E-04,,
252,5.60E-04,,
253,5.60E-04,,
254,5.60E-04,,
255,5.60E-04,,
256,5.60E-04,,
257,5.60E-04,,
258,5.60E-04,,
259,5.60E-04,,
260,2.80E-04,,
261,2.80E-04,,
262,2.80E-04,,
263,2.80E-04,,
264,0.00E+00,,
265,0.00E+00,,
266,0.00E+00,,
267,0.00E+00,,
268,0.00E+00,,
269,0.00E+00,,
270,0.00E+00,,
271,-2.80E-04,,
272,-2.80E-04,,
273,-2.80E-04,,
274,-2.80E-04,,
275,-2.80E-04,,
276,-2.80E-04,,
277,-5.60E-04,,
278,-5.60E-04,,
279,-5.60E-04,,
280,-8.40E-04,,
281,-8.40E-04,,
282,-8.40E-04,,
283,-8.40E-04,,
284,-8.40E-04,,
285,-8.40E-04,,
286,-1.12E-03,,
287,-1.12E-03,,
288,-1.12E-03,,
289,-1.12E-03,,
290,-1.12E-03,,
291,-1.12E-03,,
292,-1.12E-03,,
293,-1.12E-03,,
294,-1.12E-03,,
295,-1.12E-03,,
296,-1.40E-03,,
297,-1.40E-03,,
298,-1.68E-03,,
299,-1.68E-03,,
300,-1.68E-03,,
301,-1.68E-03,,
302,-1.68E-03,,
303,-1.96E-03,,
304,-1.96E-03,,
305,-1.96E-03,,
306,-1.96E-03,,
307,-1.96E-03,,
308,-1.96E-03,,
309,-1.96E-03,,
310,-2.24E-03,,
311,-2.24E-03,,
312,-2.24E-03,,
313,-2.24E-03,,
314,-2.24E-03,,
315,-2.24E-03,,
316,-2.24E-03,,
317,-2.24E-03,,
318,-2.24E-03,,
319,-2.24E-03,,
320,-2.24E-03,,
321,-2.24E-03,,
322,-2.24E-03,,
323,-2.24E-03,,
324,-2.24E-03,,
325,-2.24E-03,,
326,-2.24E-03,,
327,-2.24E-03,,
328,-1.96E-03,,
329,-1.96E-03,,
330,-1.96E-03,,
331,-1.96E-03,,
332,-1.96E-03,,
333,-1.68E-03,,
334,-1.68E-03,,
335,-1.68E-03,,
336,-1.68E-03,,
337,-1.68E-03,,
338,-1.68E-03,,
339,-1.68E-03,,
340,-1.40E-03,,
341,-1.40E-03,,
342,-1.40E-03,,
343,-1.12E-03,,
344,-1.12E-03,,
345,-1.12E-03,,
346,-1.12E-03,,
347,-8.40E-04,,
348,-8.40E-04,,
349,-8.40E-04,,
350,-5.60E-04,,
351,-5.60E-04,,
352,-5.60E-04,,
353,-2.80E-04,,
354,-2.80E-04,,
355,-2.80E-04,,
356,-2.80E-04,,
357,0.00E+00,,
358,0.00E+00,,
359,0.00E+00,,
360,2.80E-04,,
361,2.80E-04,,
362,5.60E-04,,
363,5.60E-04,,
364,5.60E-04,,
365,5.60E-04,,
366,8.40E-04,,
367,8.40E-04,,
368,8.40E-04,,
369,1.12E-03,,
370,1.12E-03,,
371,1.40E-03,,
372,1.40E-03,,
373,1.40E-03,,
374,1.68E-03,,
375,1.68E-03,,
376,1.68E-03,,
377,1.96E-03,,
378,1.96E-03,,
379,1.96E-03,,
380,1.96E-03,,
381,1.96E-03,,
382,1.96E-03,,
383,2.24E-03,,
384,2.24E-03,,
385,2.24E-03,,
386,2.24E-03,,
387,2.24E-03,,
388,2.24E-03,,
389,2.24E-03,,
390,2.24E-03,,
391,2.24E-03,,
392,2.24E-03,,
393,2.52E-03,,
394,2.52E-03,,
395,2.80E-03,,
396,2.80E-03,,
397,2.80E-03,,
398,2.80E-03,,
399,2.80E-03,,
400,3.08E-03,,
401,3.08E-03,,
402,3.08E-03,,
403,3.08E-03,,
404,3.08E-03,,
405,3.08E-03,,
406,3.08E-03,,
407,3.08E-03,,
408,3.08E-03,,
409,3.08E-03,,
410,3.36E-03,,
411,3.36E-03,,
412,3.36E-03,,
413,3.36E-03,,
414,3.36E-03,,
415,3.36E-03,,
416,3.36E-03,,
417,3.36E-03,,
418,3.36E-03,,
419,3.36E-03,,
420,3.36E-03,,
421,3.36E-03,,
422,3.36E-03,,
423,3.36E-03,,
424,3.08E-03,,
425,3.08E-03,,
426,3.08E-03,,
427,3.08E-03,,
428,3.08E-03,,
429,2.80E-03,,
430,2.80E-03,,
431,2.80E-03,,
432,2.80E-03,,
433,2.80E-03,,
434,2.80E-03,,
435,2.80E-03,,
436,2.80E-03,,
437,2.80E-03,,
438,2.52E-03,,
439,2.52E-03,,
440,2.52E-03,,
441,2.52E-03,,
442,2.52E-03,,
443,2.52E-03,,
444,2.52E-03,,
445,2.24E-03,,
446,2.24E-03,,
447,2.24E-03,,
448,2.24E-03,,
449,1.96E-03,,
450,1.96E-03,,
451,1.96E-03,,
452,1.96E-03,,
453,1.96E-03,,
454,1.96E-03,,
455,1.68E-03,,
456,1.68E-03,,
457,1.68E-03,,
458,1.40E-03,,
459,1.40E-03,,
460,1.40E-03,,
461,1.40E-03,,
462,1.12E-03,,
463,1.12E-03,,
464,1.12E-03,,
465,1.12E-03,,
466,8.40E-04,,
467,8.40E-04,,
468,5.60E-04,,
469,5.60E-04,,
470,2.80E-04,,
471,2.80E-04,,
472,2.80E-04,,
473,0.00E+00,,
474,0.00E+00,,
475,-2.80E-04,,
476,-2.80E-04,,
477,-5.60E-04,,
478,-5.60E-04,,
479,-5.60E-04,,
480,-5.60E-04,,
481,-8.40E-04,,
482,-8.40E-04,,
483,-8.40E-04,,
484,-8.40E-04,,
485,-8.40E-04,,
486,-1.12E-03,,
487,-1.12E-03,,
488,-1.40E-03,,
489,-1.40E-03,,
490,-1.40E-03,,
491,-1.68E-03,,
492,-1.68E-03,,
493,-1.68E-03,,
494,-1.68E-03,,
495,-1.68E-03,,
496,-1.96E-03,,
497,-1.96E-03,,
498,-1.96E-03,,
499,-1.96E-03,,
500,-1.96E-03,,
501,-1.96E-03,,
502,-2.24E-03,,
503,-2.24E-03,,
504,-2.24E-03,,
505,-2.24E-03,,
506,-2.24E-03,,
507,-2.24E-03,,
508,-2.24E-03,,
509,-2.24E-03,,
510,-2.24E-03,,
511,-2.24E-03,,
512,-2.24E-03,,
513,-2.24E-03,,
514,-2.24E-03,,
515,-2.24E-03,,
516,-2.24E-03,,
517,-2.24E-03,,
518,-2.24E-03,,
519,-2.24E-03,,
520,-2.24E-03,,
521,-1.96E-03,,
522,-1.96E-03,,
523,-1.96E-03,,
524,-1.96E-03,,
525,-1.96E-03,,
526,-1.96E-03,,
527,-1.68E-03,,
528,-1.68E-03,,
529,-1.68E-03,,
530,-1.68E-03,,
531,-1.40E-03,,
532,-1.40E-03,,
533,-1.40E-03,,
534,-1.12E-03,,
535,-1.12E-03,,
536,-1.12E-03,,
537,-1.12E-03,,
538,-8.40E-04,,
539,-8.40E-04,,
540,-8.40E-04,,
541,-5.60E-04,,
542,-5.60E-04,,
543,-5.60E-04,,
544,-2.80E-04,,
545,-2.80E-04,,
546,-2.80E-04,,
547,0.00E+00,,
548,0.00E+00,,
549,2.80E-04,,
550,2.80E-04,,
551,5.60E-04,,
552,5.60E-04,,
553,8.40E-04,,
554,1.12E-03,,
555,1.12E-03,,
556,1.12E-03,,
557,1.40E-03,,
558,1.40E-03,,
559,1.68E-03,,
560,1.96E-03,,
561,1.96E-03,,
562,1.96E-03,,
563,1.96E-03,,
564,2.24E-03,,
565,2.24E-03,,
566,2.52E-03,,
567,2.52E-03,,
568,2.52E-03,,
569,2.80E-03,,
570,2.80E-03,,
571,3.08E-03,,
572,3.08E-03,,
573,3.36E-03,,
574,3.36E-03,,
575,3.36E-03,,
576,3.64E-03,,
577,3.64E-03,,
578,3.64E-03,,
579,3.64E-03,,
580,3.92E-03,,
581,3.92E-03,,
582,3.92E-03,,
583,3.92E-03,,
584,4.20E-03,,
585,4.20E-03,,
586,4.48E-03,,
587,4.48E-03,,
588,4.48E-03,,
589,4.48E-03,,
590,4.76E-03,,
591,4.76E-03,,
592,4.76E-03,,
593,4.76E-03,,
594,5.04E-03,,
595,5.04E-03,,
596,5.04E-03,,
597,5.04E-03,,
598,5.04E-03,,
599,5.04E-03,,
600,5.04E-03,,
601,5.04E-03,,
602,5.04E-03,,
603,5.04E-03,,
604,5.04E-03,,
605,5.04E-03,,
606,5.04E-03,,
607,5.04E-03,,
608,5.32E-03,,
609,5.32E-03,,
610,5.32E-03,,
611,5.32E-03,,
612,5.32E-03,,
613,5.32E-03,,
614,5.32E-03,,
615,5.32E-03,,
616,5.32E-03,,
617,5.32E-03,,
618,5.32E-03,,
619,5.32E-03,,
620,5.32E-03,,
621,5.32E-03,,
622,5.32E-03,,
623,5.32E-03,,
624,5.32E-03,,
625,5.32E-03,,
626,5.32E-03,,
627,5.32E-03,,
628,5.04E-03,,
629,5.04E-03,,
630,5.04E-03,,
631,5.04E-03,,
632,4.76E-03,,
633,4.76E-03,,
634,4.76E-03,,
635,4.76E-03,,
636,4.76E-03,,
637,4.76E-03,,
638,4.76E-03,,
639,4.76E-03,,
640,4.76E-03,,
641,4.48E-03,,
642,4.48E-03,,
643,4.48E-03,,
644,4.48E-03,,
645,4.48E-03,,
646,4.20E-03,,
647,4.20E-03,,
648,4.20E-03,,
649,3.92E-03,,
650,3.92E-03,,
651,3.92E-03,,
652,3.92E-03,,
653,3.92E-03,,
654,3.64E-03,,
655,3.64E-03,,
656,3.36E-03,,
657,3.36E-03,,
658,3.36E-03,,
659,3.08E-03,,
660,3.08E-03,,
661,2.80E-03,,
662,2.80E-03,,
663,2.52E-03,,
664,2.52E-03,,
665,2.52E-03,,
666,2.24E-03,,
667,2.24E-03,,
668,2.24E-03,,
669,2.24E-03,,
670,1.96E-03,,
671,1.96E-03,,
672,1.68E-03,,
673,1.68E-03,,
674,1.40E-03,,
675,1.40E-03,,
676,1.12E-03,,
677,1.12E-03,,
678,8.40E-04,,
679,8.40E-04,,
680,5.60E-04,,
681,5.60E-04,,
682,5.60E-04,,
683,5.60E-04,,
684,2.80E-04,,
685,2.80E-04,,
686,2.80E-04,,
687,2.80E-04,,
688,0.00E+00,,
689,0.00E+00,,
690,0.00E+00,,
691,-2.80E-04,,
692,-2.80E-04,,
693,-2.80E-04,,
694,-5.60E-04,,
695,-5.60E-04,,
696,-5.60E-04,,
697,-8.40E-04,,
698,-8.40E-04,,
699,-8.40E-04,,
700,-8.40E-04,,
701,-8.40E-04,,
702,-1.12E-03,,
703,-1.12E-03,,
704,-1.12E-03,,
705,-1.12E-03,,
706,-1.12E-03,,
707,-1.12E-03,,
708,-1.12E-03,,
709,-1.12E-03,,
710,-1.12E-03,,
711,-1.12E-03,,
712,-1.12E-03,,
713,-1.40E-03,,
714,-1.40E-03,,
715,-1.40E-03,,
716,-1.40E-03,,
717,-1.40E-03,,
718,-1.40E-03,,
719,-1.40E-03,,
720,-1.12E-03,,
721,-1.12E-03,,
722,-1.12E-03,,
723,-1.12E-03,,
724,-1.12E-03,,
725,-8.40E-04,,
726,-8.40E-04,,
727,-8.40E-04,,
728,-8.40E-04,,
729,-8.40E-04,,
730,-5.60E-04,,
731,-5.60E-04,,
732,-5.60E-04,,
733,-2.80E-04,,
734,-2.80E-04,,
735,-2.80E-04,,
736,0.00E+00,,
737,0.00E+00,,
738,0.00E+00,,
739,2.80E-04,,
740,2.80E-04,,
741,5.60E-04,,
742,5.60E-04,,
743,8.40E-04,,
744,8.40E-04,,
745,1.12E-03,,
746,1.12E-03,,
747,1.40E-03,,
748,1.40E-03,,
749,1.68E-03,,
750,1.68E-03,,
751,1.96E-03,,
752,1.96E-03,,
753,2.24E-03,,
754,2.24E-03,,
755,2.52E-03,,
756,2.52E-03,,
757,2.80E-03,,
758,2.80E-03,,
759,3.08E-03,,
760,3.08E-03,,
761,3.36E-03,,
762,3.36E-03,,
763,3.36E-03,,
764,3.36E-03,,
765,3.64E-03,,
766,3.64E-03,,
767,3.64E-03,,
768,3.92E-03,,
769,3.92E-03,,
770,4.20E-03,,
771,4.20E-03,,
772,4.48E-03,,
773,4.48E-03,,
774,4.48E-03,,
775,4.48E-03,,
776,4.76E-03,,
777,4.76E-03,,
778,5.04E-03,,
779,5.04E-03,,
780,5.32E-03,,
781,5.32E-03,,
782,5.32E-03,,
783,5.60E-03,,
784,5.60E-03,,
785,5.60E-03,,
786,5.60E-03,,
787,5.88E-03,,
788,5.88E-03,,
789,6.16E-03,,
790,6.16E-03,,
791,6.44E-03,,
792,6.44E-03,,
793,6.44E-03,,
794,6.44E-03,,
795,6.44E-03,,
796,6.72E-03,,
797,6.72E-03,,
798,6.72E-03,,
799,6.72E-03,,
800,6.72E-03,,
801,7.00E-03,,
802,7.00E-03,,
803,7.00E-03,,
804,7.00E-03,,
805,7.00E-03,,
806,7.00E-03,,
807,7.00E-03,,
808,7.00E-03,,
809,7.00E-03,,
810,7.00E-03,,
811,7.00E-03,,
812,7.00E-03,,
813,7.00E-03,,
814,7.00E-03,,
815,7.00E-03,,
816,7.00E-03,,
817,7.00E-03,,
818,7.28E-03,,
819,7.28E-03,,
820,7.28E-03,,
821,7.28E-03,,
822,7.28E-03,,
823,7.28E-03,,
824,7.28E-03,,
825,7.28E-03,,
826,7.28E-03,,
827,7.28E-03,,
828,7.28E-03,,
829,7.28E-03,,
830,7.28E-03,,
831,7.28E-03,,
832,7.28E-03,,
833,7.28E-03,,
834,7.28E-03,,
835,7.28E-03,,
836,7.28E-03,,
837,7.28E-03,,
838,7.28E-03,,
839,7.28E-03,,
840,7.28E-03,,
841,7.28E-03,,
842,7.28E-03,,
843,7.28E-03,,
844,7.00E-03,,
845,7.00E-03,,
846,7.00E-03,,
847,7.00E-03,,
848,6.72E-03,,
849,6.72E-03,,
850,6.72E-03,,
851,6.72E-03,,
852,6.72E-03,,
853,6.44E-03,,
854,6.44E-03,,
855,6.44E-03,,
856,6.16E-03,,
857,6.16E-03,,
858,6.16E-03,,
859,5.88E-03,,
860,5.88E-03,,
861,5.88E-03,,
862,5.88E-03,,
863,5.88E-03,,
864,5.60E-03,,
865,5.60E-03,,
866,5.32E-03,,
867,5.32E-03,,
868,5.32E-03,,
869,5.04E-03,,
870,5.04E-03,,
871,5.04E-03,,
872,5.04E-03,,
873,4.76E-03,,
874,4.76E-03,,
875,4.48E-03,,
876,4.48E-03,,
877,4.48E-03,,
878,4.20E-03,,
879,4.20E-03,,
880,3.92E-03,,
881,3.92E-03,,
882,3.64E-03,,
883,3.64E-03,,
884,3.64E-03,,
885,3.64E-03,,
886,3.36E-03,,
887,3.36E-03,,
888,3.08E-03,,
889,3.08E-03,,
890,3.08E-03,,
891,2.80E-03,,
892,2.80E-03,,
893,2.80E-03,,
894,2.80E-03,,
895,2.80E-03,,
896,2.80E-03,,
897,2.52E-03,,
898,2.52E-03,,
899,2.52E-03,,
900,2.52E-03,,
901,2.52E-03,,
902,2.52E-03,,
903,2.52E-03,,
904,2.24E-03,,
905,2.24E-03,,
906,1.96E-03,,
907,1.96E-03,,
908,1.96E-03,,
909,1.96E-03,,
910,1.68E-03,,
911,1.68E-03,,
912,1.68E-03,,
913,1.68E-03,,
914,1.68E-03,,
915,1.40E-03,,
916,1.40E-03,,
917,1.12E-03,,
918,1.12E-03,,
919,1.12E-03,,
920,8.40E-04,,
921,8.40E-04,,
922,8.40E-04,,
923,8.40E-04,,
924,8.40E-04,,
925,8.40E-04,,
926,1.12E-03,,
927,1.12E-03,,
928,1.12E-03,,
929,1.12E-03,,
930,1.12E-03,,
931,1.12E-03,,
932,1.12E-03,,
933,1.12E-03,,
934,1.40E-03,,
935,1.40E-03,,
936,1.40E-03,,
937,1.40E-03,,
938,1.40E-03,,
939,1.68E-03,,
940,1.68E-03,,
941,1.68E-03,,
942,1.96E-03,,
943,1.96E-03,,
944,1.96E-03,,
945,2.24E-03,,
946,2.24E-03,,
947,2.52E-03,,
948,2.52E-03,,
949,2.52E-03,,
950,2.80E-03,,
951,2.80E-03,,
952,2.80E-03,,
953,3.08E-03,,
954,3.08E-03,,
955,3.08E-03,,
956,3.36E-03,,
957,3.36E-03,,
958,3.64E-03,,
959,3.64E-03,,
960,3.64E-03,,
961,3.92E-03,,
962,3.92E-03,,
963,3.92E-03,,
964,4.20E-03,,
965,4.20E-03,,
966,4.48E-03,,
967,4.48E-03,,
968,4.76E-03,,
969,4.76E-03,,
970,5.04E-03,,
971,5.04E-03,,
972,5.32E-03,,
973,5.32E-03,,
974,5.32E-03,,
975,5.60E-03,,
976,5.60E-03,,
977,5.60E-03,,
978,5.88E-03,,
979,5.88E-03,,
980,6.16E-03,,
981,6.16E-03,,
982,6.16E-03,,
983,6.44E-03,,
984,6.72E-03,,
985,6.72E-03,,
986,6.72E-03,,
987,7.00E-03,,
988,7.00E-03,,
989,7.28E-03,,
990,7.28E-03,,
991,7.28E-03,,
992,7.56E-03,,
993,7.56E-03,,
994,7.84E-03,,
995,7.84E-03,,
996,7.84E-03,,
997,8.12E-03,,
998,8.12E-03,,
999,8.12E-03,,
1000,8.40E-03,,
1001,8.40E-03,,
1002,8.40E-03,,
1003,8.40E-03,,
1004,8.40E-03,,
1005,8.68E-03,,
1006,8.68E-03,,
1007,8.68E-03,,
1008,8.96E-03,,
1009,8.96E-03,,
1010,8.96E-03,,
1011,9.24E-03,,
1012,9.24E-03,,
1013,9.24E-03,,
1014,9.52E-03,,
1015,9.52E-03,,
1016,9.52E-03,,
1017,9.52E-03,,
1018,9.52E-03,,
1019,9.80E-03,,
1020,9.80E-03,,
1021,9.80E-03,,
1022,9.80E-03,,
1023,9.80E-03,,
1024,9.80E-03,,
1025,9.80E-03,,
1026,9.80E-03,,
1027,9.80E-03,,
1028,9.80E-03,,
1029,9.80E-03,,
1030,9.80E-03,,
1031,1.01E-02,,
1032,1.01E-02,,
1033,1.01E-02,,
1034,1.01E-02,,
1035,1.01E-02,,
1036,1.01E-02,,
1037,1.01E-02,,
1038,1.01E-02,,
1039,1.01E-02,,
1040,1.01E-02,,
1041,1.01E-02,,
1042,1.01E-02,,
1043,1.01E-02,,
1044,1.01E-02,,
1045,1.01E-02,,
1046,1.01E-02,,
1047,1.01E-02,,
1048,1.01E-02,,
1049,1.01E-02,,
1050,1.01E-02,,
1051,1.01E-02,,
1052,1.01E-02,,
1053,1.01E-02,,
1054,1.01E-02,,
1055,1.01E-02,,
1056,1.01E-02,,
1057,1.01E-02,,
1058,1.01E-02,,
1059,1.01E-02,,
1060,1.01E-02,,
1061,9.80E-03,,
1062,9.80E-03,,
1063,9.80E-03,,
1064,9.80E-03,,
1065,9.80E-03,,
1066,9.52E-03,,
1067,9.52E-03,,
1068,9.52E-03,,
1069,9.52E-03,,
1070,9.52E-03,,
1071,9.24E-03,,
1072,9.24E-03,,
1073,8.96E-03,,
1074,8.96E-03,,
1075,8.96E-03,,
1076,8.96E-03,,
1077,8.68E-03,,
1078,8.68E-03,,
1079,8.68E-03,,
1080,8.68E-03,,
1081,8.68E-03,,
1082,8.68E-03,,
1083,8.68E-03,,
1084,8.40E-03,,
1085,8.40E-03,,
1086,8.12E-03,,
1087,8.12E-03,,
1088,8.12E-03,,
1089,7.84E-03,,
1090,7.84E-03,,
1091,7.84E-03,,
1092,7.84E-03,,
1093,7.84E-03,,
1094,7.56E-03,,
1095,7.56E-03,,
1096,7.28E-03,,
1097,7.28E-03,,
1098,7.00E-03,,
1099,7.00E-03,,
1100,7.00E-03,,
1101,7.00E-03,,
1102,6.72E-03,,
1103,6.72E-03,,
1104,6.72E-03,,
1105,6.44E-03,,
1106,6.44E-03,,
1107,6.16E-03,,
1108,6.16E-03,,
1109,6.16E-03,,
1110,6.16E-03,,
1111,5.88E-03,,
1112,5.88E-03,,
1113,5.88E-03,,
1114,5.88E-03,,
1115,5.88E-03,,
1116,5.60E-03,,
1117,5.60E-03,,
1118,5.60E-03,,
1119,5.60E-03,,
1120,5.60E-03,,
1121,5.60E-03,,
1122,5.60E-03,,
1123,5.60E-03,,
1124,5.60E-03,,
1125,5.60E-03,,
1126,5.60E-03,,
1127,5.60E-03,,
1128,5.32E-03,,
1129,5.32E-03,,
1130,5.32E-03,,
1131,5.32E-03,,
1132,5.32E-03,,
1133,5.32E-03,,
1134,5.32E-03,,
1135,5.32E-03,,
1136,5.32E-03,,
1137,5.32E-03,,
1138,5.32E-03,,
1139,5.32E-03,,
1140,5.32E-03,,
1141,5.32E-03,,
1142,5.32E-03,,
1143,5.32E-03,,
1144,5.32E-03,,
1145,5.32E-03,,
1146,5.32E-03,,
1147,5.32E-03,,
1148,5.32E-03,,
1149,5.32E-03,,
1150,5.32E-03,,
1151,5.60E-03,,
1152,5.60E-03,,
1153,5.60E-03,,
1154,5.60E-03,,
1155,5.60E-03,,
1156,5.88E-03,,
1157,5.88E-03,,
1158,5.88E-03,,
1159,5.88E-03,,
1160,5.88E-03,,
1161,6.16E-03,,
1162,6.16E-03,,
1163,6.16E-03,,
1164,6.16E-03,,
1165,6.44E-03,,
1166,6.44E-03,,
1167,6.44E-03,,
1168,6.72E-03,,
1169,6.72E-03,,
1170,6.72E-03,,
1171,6.72E-03,,
1172,7.00E-03,,
1173,7.00E-03,,
1174,7.28E-03,,
1175,7.28E-03,,
1176,7.28E-03,,
1177,7.56E-03,,
1178,7.56E-03,,
1179,7.56E-03,,
1180,7.56E-03,,
1181,7.84E-03,,
1182,7.84E-03,,
1183,8.12E-03,,
1184,8.12E-03,,
1185,8.12E-03,,
1186,8.40E-03,,
1187,8.40E-03,,
1188,8.40E-03,,
1189,8.40E-03,,
1190,8.68E-03,,
1191,8.68E-03,,
1192,8.96E-03,,
1193,8.96E-03,,
1194,9.24E-03,,
1195,9.24E-03,,
1196,9.24E-03,,
1197,9.52E-03,,
1198,9.52E-03,,
1199,9.80E-03,,
1200,9.80E-03,,
1201,1.01E-02,,
1202,1.01E-02,,
1203,1.01E-02,,
1204,1.01E-02,,
1205,1.04E-02,,
1206,1.04E-02,,
1207,1.04E-02,,
1208,1.06E-02,,
1209,1.06E-02,,
1210,1.09E-02,,
1211,1.09E-02,,
1212,1.09E-02,,
1213,1.12E-02,,
1214,1.12E-02,,
1215,1.12E-02,,
1216,1.15E-02,,
1217,1.15E-02,,
1218,1.18E-02,,
1219,1.18E-02,,
1220,1.18E-02,,
1221,1.20E-02,,
1222,1.20E-02,,
1223,1.20E-02,,
1224,1.23E-02,,
1225,1.23E-02,,
1226,1.23E-02,,
1227,1.23E-02,,
1228,1.23E-02,,
1229,1.26E-02,,
1230,1.26E-02,,
1231,1.29E-02,,
1232,1.29E-02,,
1233,1.29E-02,,
1234,1.32E-02,,
1235,1.32E-02,,
1236,1.32E-02,,
1237,1.32E-02,,
1238,1.34E-02,,
1239,1.34E-02,,
1240,1.34E-02,,
1241,1.34E-02,,
1242,1.34E-02,,
1243,1.34E-02,,
1244,1.34E-02,,
1245,1.34E-02,,
1246,1.37E-02,,
1247,1.37E-02,,
1248,1.37E-02,,
1249,1.37E-02,,
1250,1.37E-02,,
1251,1.37E-02,,
1252,1.37E-02,,
1253,1.37E-02,,
1254,1.37E-02,,
1255,1.40E-02,,
1256,1.40E-02,,
1257,1.40E-02,,
1258,1.43E-02,,
1259,1.43E-02,,
1260,1.43E-02,,
1261,1.43E-02,,
1262,1.43E-02,,
1263,1.43E-02,,
1264,1.46E-02,,
1265,1.46E-02,,
1266,1.46E-02,,
1267,1.46E-02,,
1268,1.46E-02,,
1269,1.43E-02,,
1270,1.43E-02,,
1271,1.43E-02,,
1272,1.43E-02,,
1273,1.43E-02,,
1274,1.43E-02,,
1275,1.43E-02,,
1276,1.40E-02,,
1277,1.40E-02,,
1278,1.40E-02,,
1279,1.40E-02,,
1280,1.40E-02,,
1281,1.40E-02,,
1282,1.40E-02,,
1283,1.40E-02,,
1284,1.40E-02,,
1285,1.40E-02,,
1286,1.40E-02,,
1287,1.40E-02,,
1288,1.40E-02,,
1289,1.40E-02,,
1290,1.40E-02,,
1291,1.37E-02,,
