C2/C2_rawdata/3.0.csv

X,CH1,Start,Increment
Sequence,VOLT,4.52E-05,1.00E-06
0,1.20E-03,,
1,1.20E-03,,
2,1.20E-03,,
3,1.20E-03,,
4,1.20E-03,,
5,1.20E-03,,
6,1.20E-03,,
7,1.20E-03,,
8,1.20E-03,,
9,1.20E-03,,
10,1.20E-03,,
11,1.20E-03,,
12,1.20E-03,,
13,1.20E-03,,
14,1.20E-03,,
15,1.20E-03,,
16,1.20E-03,,
17,1.20E-03,,
18,1.20E-03,,
19,1.20E-03,,
20,1.20E-03,,
21,1.20E-03,,
22,1.20E-03,,
23,1.20E-03,,
24,1.20E-03,,
25,1.20E-03,,
26,1.20E-03,,
27,1.20E-03,,
28,1.20E-03,,
29,1.20E-03,,
30,1.20E-03,,
31,1.20E-03,,
32,1.20E-03,,
33,1.20E-03,,
34,1.20E-03,,
35,1.20E-03,,
36,1.20E-03,,
37,1.20E-03,,
38,1.20E-03,,
39,1.20E-03,,
40,1.20E-03,,
41,1.20E-03,,
42,1.20E-03,,
43,1.20E-03,,
44,1.20E-03,,
45,1.20E-03,,
46,1.20E-03,,
47,1.20E-03,,
48,1.20E-03,,
49,1.20E-03,,
50,1.20E-03,,
51,1.20E-03,,
52,1.20E-03,,
53,1.20E-03,,
54,1.20E-03,,
55,1.20E-03,,
56,1.20E-03,,
57,1.20E-03,,
58,1.20E-03,,
59,1.20E-03,,
60,1.20E-03,,
61,1.20E-03,,
62,1.20E-03,,
63,1.20E-03,,
64,1.20E-03,,
65,1.20E-03,,
66,1.20E-03,,
67,1.20E-03,,
68,1.20E-03,,
69,1.20E-03,,
70,1.20E-03,,
71,1.20E-03,,
72,1.20E-03,,
73,1.20E-03,,
74,1.20E-03,,
75,1.20E-03,,
76,1.20E-03,,
77,1.20E-03,,
78,1.20E-03,,
79,1.20E-03,,
80,1.20E-03,,
81,1.20E-03,,
82,1.20E-03,,
83,1.20E-03,,
84,1.20E-03,,
85,1.20E-03,,
86,1.20E-03,,
87,1.20E-03,,
88,1.20E-03,,
89,1.20E-03,,
90,1.20E-03,,
91,1.20E-03,,
92,1.20E-03,,
93,1.20E-03,,
94,1.20E-03,,
95,1.20E-03,,
96,1.20E-03,,
97,1.20E-03,,
98,2.40E-03,,
99,2.40E-03,,
100,2.40E-03,,
101,2.40E-03,,
102,2.40E-03,,
103,2.40E-03,,
104,2.40E-03,,
105,2.40E-03,,
106,2.40E-03,,
107,2.40E-03,,
108,2.40E-03,,
109,2.40E-03,,
110,2.40E-03,,
111,2.40E-03,,
112,2.40E-03,,
113,1.20E-03,,
114,1.20E-03,,
115,2.40E-03,,
116,2.40E-03,,
117,2.40E-03,,
118,2.40E-03,,
119,2.40E-03,,
120,2.40E-03,,
121,2.40E-03,,
122,2.40E-03,,
123,2.40E-03,,
124,2.40E-03,,
125,2.40E-03,,
126,2.40E-03,,
127,2.40E-03,,
128,2.40E-03,,
129,2.40E-03,,
130,2.40E-03,,
131,2.40E-03,,
132,2.40E-03,,
133,3.60E-03,,
134,3.60E-03,,
135,3.60E-03,,
136,3.60E-03,,
137,3.60E-03,,
138,3.60E-03,,
139,3.60E-03,,
140,3.60E-03,,
141,4.80E-03,,
142,4.80E-03,,
143,4.80E-03,,
144,4.80E-03,,
145,4.80E-03,,
146,4.80E-03,,
147,6.00E-03,,
148,6.00E-03,,
149,6.00E-03,,
150,6.00E-03,,
151,6.00E-03,,
152,6.00E-03,,
153,7.20E-03,,
154,7.20E-03,,
155,7.20E-03,,
156,7.20E-03,,
157,7.20E-03,,
158,7.20E-03,,
159,7.20E-03,,
160,8.40E-03,,
161,8.40E-03,,
162,8.40E-03,,
163,8.40E-03,,
164,8.40E-03,,
165,8.40E-03,,
166,8.40E-03,,
167,8.40E-03,,
168,8.40E-03,,
169,9.60E-03,,
170,9.60E-03,,
171,9.60E-03,,
172,9.60E-03,,
173,9.60E-03,,
174,9.60E-03,,
175,9.60E-03,,
176,9.60E-03,,
177,9.60E-03,,
178,9.60E-03,,
179,1.08E-02,,
180,1.08E-02,,
181,1.08E-02,,
182,1.08E-02,,
183,1.08E-02,,
184,1.08E-02,,
185,1.08E-02,,
186,1.08E-02,,
187,1.08E-02,,
188,1.08E-02,,
189,1.08E-02,,
190,1.08E-02,,
191,1.08E-02,,
192,1.20E-02,,
193,1.20E-02,,
194,1.20E-02,,
195,1.20E-02,,
196,1.20E-02,,
197,1.20E-02,,
198,1.20E-02,,
199,1.20E-02,,
200,1.20E-02,,
201,1.20E-02,,
202,1.20E-02,,
203,1.20E-02,,
204,1.20E-02,,
205,1.20E-02,,
206,1.20E-02,,
207,1.20E-02,,
208,1.20E-02,,
209,1.20E-02,,
210,1.20E-02,,
211,1.20E-02,,
212,1.20E-02,,
213,1.20E-02,,
214,1.20E-02,,
215,1.20E-02,,
216,1.32E-02,,
217,1.32E-02,,
218,1.32E-02,,
219,1.32E-02,,
220,1.32E-02,,
221,1.32E-02,,
222,1.32E-02,,
223,1.32E-02,,
224,1.32E-02,,
225,1.32E-02,,
226,1.32E-02,,
227,1.32E-02,,
228,1.32E-02,,
229,1.32E-02,,
230,1.32E-02,,
231,1.32E-02,,
232,1.32E-02,,
233,1.32E-02,,
234,1.32E-02,,
235,1.32E-02,,
236,1.32E-02,,
237,1.32E-02,,
238,1.32E-02,,
239,1.32E-02,,
240,1.32E-02,,
241,1.32E-02,,
242,1.32E-02,,
243,1.32E-02,,
244,1.32E-02,,
245,1.20E-02,,
246,1.20E-02,,
247,1.20E-02,,
248,1.20E-02,,
249,1.20E-02,,
250,1.20E-02,,
251,1.20E-02,,
252,1.20E-02,,
253,1.20E-02,,
254,1.20E-02,,
255,1.20E-02,,
256,1.20E-02,,
257,1.20E-02,,
258,1.20E-02,,
259,1.20E-02,,
260,1.08E-02,,
261,1.08E-02,,
262,1.08E-02,,
263,1.08E-02,,
264,1.08E-02,,
265,1.08E-02,,
266,1.08E-02,,
267,1.08E-02,,
268,9.60E-03,,
269,9.60E-03,,
270,9.60E-03,,
271,9.60E-03,,
272,9.60E-03,,
273,9.60E-03,,
274,9.60E-03,,
275,9.60E-03,,
276,8.40E-03,,
277,8.40E-03,,
278,8.40E-03,,
279,8.40E-03,,
280,8.40E-03,,
281,8.40E-03,,
282,7.20E-03,,
283,7.20E-03,,
284,7.20E-03,,
285,7.20E-03,,
286,7.20E-03,,
287,7.20E-03,,
288,7.20E-03,,
289,7.20E-03,,
290,7.20E-03,,
291,6.00E-03,,
292,6.00E-03,,
293,6.00E-03,,
294,6.00E-03,,
295,6.00E-03,,
296,6.00E-03,,
297,6.00E-03,,
298,4.80E-03,,
299,4.80E-03,,
300,4.80E-03,,
301,4.80E-03,,
302,4.80E-03,,
303,4.80E-03,,
304,4.80E-03,,
305,4.80E-03,,
306,4.80E-03,,
307,3.60E-03,,
308,3.60E-03,,
309,3.60E-03,,
310,3.60E-03,,
311,3.60E-03,,
312,3.60E-03,,
313,3.60E-03,,
314,3.60E-03,,
315,3.60E-03,,
316,3.60E-03,,
317,3.60E-03,,
318,3.60E-03,,
319,3.60E-03,,
320,3.60E-03,,
321,3.60E-03,,
322,3.60E-03,,
323,3.60E-03,,
324,3.60E-03,,
325,3.60E-03,,
326,3.60E-03,,
327,3.60E-03,,
328,3.60E-03,,
329,3.60E-03,,
330,3.60E-03,,
331,3.60E-03,,
332,3.60E-03,,
333,4.80E-03,,
334,4.80E-03,,
335,4.80E-03,,
336,4.80E-03,,
337,4.80E-03,,
338,4.80E-03,,
339,4.80E-03,,
340,6.00E-03,,
341,6.00E-03,,
342,6.00E-03,,
343,6.00E-03,,
344,6.00E-03,,
345,6.00E-03,,
346,7.20E-03,,
347,7.20E-03,,
348,7.20E-03,,
349,7.20E-03,,
350,7.20E-03,,
351,8.40E-03,,
352,8.40E-03,,
353,8.40E-03,,
354,8.40E-03,,
355,9.60E-03,,
356,9.60E-03,,
357,9.60E-03,,
358,1.08E-02,,
359,1.08E-02,,
360,1.08E-02,,
361,1.08E-02,,
362,1.20E-02,,
363,1.20E-02,,
364,1.20E-02,,
365,1.20E-02,,
366,1.20E-02,,
367,1.32E-02,,
368,1.32E-02,,
369,1.32E-02,,
370,1.32E-02,,
371,1.44E-02,,
372,1.44E-02,,
373,1.44E-02,,
374,1.56E-02,,
375,1.56E-02,,
376,1.56E-02,,
377,1.56E-02,,
378,1.68E-02,,
379,1.68E-02,,
380,1.68E-02,,
381,1.68E-02,,
382,1.68E-02,,
383,1.80E-02,,
384,1.80E-02,,
385,1.80E-02,,
386,1.80E-02,,
387,1.80E-02,,
388,1.80E-02,,
389,1.80E-02,,
390,1.92E-02,,
391,1.92E-02,,
392,1.92E-02,,
393,1.92E-02,,
394,1.92E-02,,
395,1.92E-02,,
396,1.92E-02,,
397,1.92E-02,,
398,2.04E-02,,
399,2.04E-02,,
400,2.04E-02,,
401,2.04E-02,,
402,2.04E-02,,
403,2.04E-02,,
404,2.04E-02,,
405,2.04E-02,,
406,2.04E-02,,
407,2.04E-02,,
408,2.04E-02,,
409,2.16E-02,,
410,2.16E-02,,
411,2.16E-02,,
412,2.16E-02,,
413,2.16E-02,,
414,2.16E-02,,
415,2.16E-02,,
416,2.16E-02,,
417,2.16E-02,,
418,2.16E-02,,
419,2.16E-02,,
420,2.16E-02,,
421,2.16E-02,,
422,2.16E-02,,
423,2.16E-02,,
424,2.16E-02,,
425,2.16E-02,,
426,2.16E-02,,
427,2.16E-02,,
428,2.16E-02,,
429,2.16E-02,,
430,2.16E-02,,
431,2.16E-02,,
432,2.16E-02,,
433,2.16E-02,,
434,2.04E-02,,
435,2.04E-02,,
436,2.04E-02,,
437,2.04E-02,,
438,2.04E-02,,
439,2.04E-02,,
440,2.04E-02,,
441,2.04E-02,,
442,2.04E-02,,
443,2.04E-02,,
444,2.04E-02,,
445,1.92E-02,,
446,1.92E-02,,
447,1.92E-02,,
448,1.92E-02,,
449,1.92E-02,,
450,1.92E-02,,
451,1.92E-02,,
452,1.80E-02,,
453,1.80E-02,,
454,1.80E-02,,
455,1.80E-02,,
456,1.80E-02,,
457,1.68E-02,,
458,1.68E-02,,
459,1.68E-02,,
460,1.68E-02,,
461,1.56E-02,,
462,1.56E-02,,
463,1.56E-02,,
464,1.56E-02,,
465,1.44E-02,,
466,1.44E-02,,
467,1.44E-02,,
468,1.32E-02,,
469,1.32E-02,,
470,1.32E-02,,
471,1.32E-02,,
472,1.20E-02,,
473,1.20E-02,,
474,1.20E-02,,
475,1.20E-02,,
476,1.08E-02,,
477,1.08E-02,,
478,1.08E-02,,
479,9.60E-03,,
480,9.60E-03,,
481,9.60E-03,,
482,9.60E-03,,
483,9.60E-03,,
484,8.40E-03,,
485,8.40E-03,,
486,8.40E-03,,
487,8.40E-03,,
488,7.20E-03,,
489,7.20E-03,,
490,7.20E-03,,
491,7.20E-03,,
492,7.20E-03,,
493,6.00E-03,,
494,6.00E-03,,
495,6.00E-03,,
496,6.00E-03,,
497,6.00E-03,,
498,4.80E-03,,
499,4.80E-03,,
500,4.80E-03,,
501,4.80E-03,,
502,4.80E-03,,
503,4.80E-03,,
504,4.80E-03,,
505,4.80E-03,,
506,4.80E-03,,
507,4.80E-03,,
508,3.60E-03,,
509,3.60E-03,,
510,3.60E-03,,
511,3.60E-03,,
512,3.60E-03,,
513,3.60E-03,,
514,3.60E-03,,
515,3.60E-03,,
516,3.60E-03,,
517,3.60E-03,,
518,3.60E-03,,
519,3.60E-03,,
520,3.60E-03,,
521,3.60E-03,,
522,3.60E-03,,
523,3.60E-03,,
524,4.80E-03,,
525,4.80E-03,,
526,4.80E-03,,
527,4.80E-03,,
528,4.80E-03,,
529,4.80E-03,,
530,4.80E-03,,
531,6.00E-03,,
532,6.00E-03,,
533,6.00E-03,,
534,6.00E-03,,
535,6.00E-03,,
536,7.20E-03,,
537,7.20E-03,,
538,7.20E-03,,
539,8.40E-03,,
540,8.40E-03,,
541,8.40E-03,,
542,8.40E-03,,
543,9.60E-03,,
544,9.60E-03,,
545,9.60E-03,,
546,1.08E-02,,
547,1.08E-02,,
548,1.20E-02,,
549,1.20E-02,,
550,1.20E-02,,
551,1.32E-02,,
552,1.32E-02,,
553,1.44E-02,,
554,1.44E-02,,
555,1.56E-02,,
556,1.56E-02,,
557,1.56E-02,,
558,1.68E-02,,
559,1.68E-02,,
560,1.80E-02,,
561,1.80E-02,,
562,1.80E-02,,
563,1.80E-02,,
564,1.92E-02,,
565,1.92E-02,,
566,2.04E-02,,
567,2.04E-02,,
568,2.04E-02,,
569,2.16E-02,,
570,2.16E-02,,
571,2.16E-02,,
572,2.28E-02,,
573,2.28E-02,,
574,2.28E-02,,
575,2.40E-02,,
576,2.40E-02,,
577,2.40E-02,,
578,2.40E-02,,
579,2.52E-02,,
580,2.52E-02,,
581,2.52E-02,,
582,2.64E-02,,
583,2.64E-02,,
584,2.64E-02,,
585,2.64E-02,,
586,2.64E-02,,
587,2.76E-02,,
588,2.76E-02,,
589,2.76E-02,,
590,2.76E-02,,
591,2.76E-02,,
592,2.88E-02,,
593,2.88E-02,,
594,2.88E-02,,
595,2.88E-02,,
596,2.88E-02,,
597,2.88E-02,,
598,3.00E-02,,
599,3.00E-02,,
600,3.00E-02,,
601,3.00E-02,,
602,3.00E-02,,
603,3.00E-02,,
604,3.00E-02,,
605,3.00E-02,,
606,3.00E-02,,
607,3.00E-02,,
608,3.00E-02,,
609,3.12E-02,,
610,3.12E-02,,
611,3.12E-02,,
612,3.12E-02,,
613,3.12E-02,,
614,3.12E-02,,
615,3.12E-02,,
616,3.12E-02,,
617,3.12E-02,,
618,3.12E-02,,
619,3.12E-02,,
620,3.12E-02,,
621,3.12E-02,,
622,3.12E-02,,
623,3.12E-02,,
624,3.12E-02,,
625,3.12E-02,,
626,3.12E-02,,
627,3.12E-02,,
628,3.12E-02,,
629,3.12E-02,,
630,3.12E-02,,
631,3.12E-02,,
632,3.00E-02,,
633,3.00E-02,,
634,3.00E-02,,
635,3.00E-02,,
636,3.00E-02,,
637,3.00E-02,,
638,3.00E-02,,
639,3.00E-02,,
640,2.88E-02,,
641,2.88E-02,,
642,2.88E-02,,
643,2.88E-02,,
644,2.88E-02,,
645,2.88E-02,,
646,2.76E-02,,
647,2.76E-02,,
648,2.76E-02,,
649,2.76E-02,,
650,2.76E-02,,
651,2.64E-02,,
652,2.64E-02,,
653,2.64E-02,,
654,2.64E-02,,
655,2.64E-02,,
656,2.52E-02,,
657,2.52E-02,,
658,2.52E-02,,
659,2.40E-02,,
660,2.40E-02,,
661,2.40E-02,,
662,2.28E-02,,
663,2.28E-02,,
664,2.28E-02,,
665,2.16E-02,,
666,2.16E-02,,
667,2.16E-02,,
668,2.16E-02,,
669,2.04E-02,,
670,2.04E-02,,
671,2.04E-02,,
672,1.92E-02,,
673,1.92E-02,,
674,1.80E-02,,
675,1.80E-02,,
676,1.80E-02,,
677,1.68E-02,,
678,1.68E-02,,
679,1.68E-02,,
680,1.56E-02,,
681,1.56E-02,,
682,1.56E-02,,
683,1.56E-02,,
684,1.44E-02,,
685,1.44E-02,,
686,1.44E-02,,
687,1.32E-02,,
688,1.32E-02,,
689,1.32E-02,,
690,1.20E-02,,
691,1.20E-02,,
692,1.20E-02,,
693,1.20E-02,,
694,1.08E-02,,
695,1.08E-02,,
696,1.08E-02,,
697,9.60E-03,,
698,9.60E-03,,
699,9.60E-03,,
700,9.60E-03,,
701,9.60E-03,,
702,8.40E-03,,
703,8.40E-03,,
704,8.40E-03,,
705,8.40E-03,,
706,8.40E-03,,
707,8.40E-03,,
708,8.40E-03,,
709,7.20E-03,,
710,7.20E-03,,
711,7.20E-03,,
712,7.20E-03,,
713,7.20E-03,,
714,7.20E-03,,
715,7.20E-03,,
716,7.20E-03,,
717,7.20E-03,,
718,7.20E-03,,
719,7.20E-03,,
720,7.20E-03,,
721,7.20E-03,,
722,7.20E-03,,
723,7.20E-03,,
724,7.20E-03,,
725,7.20E-03,,
726,7.20E-03,,
727,8.40E-03,,
728,8.40E-03,,
729,8.40E-03,,
730,8.40E-03,,
731,8.40E-03,,
732,9.60E-03,,
733,9.60E-03,,
734,9.60E-03,,
735,9.60E-03,,
736,9.60E-03,,
737,1.08E-02,,
738,1.08E-02,,
739,1.08E-02,,
740,1.20E-02,,
741,1.20E-02,,
742,1.20E-02,,
743,1.32E-02,,
744,1.32E-02,,
745,1.44E-02,,
746,1.44E-02,,
747,1.44E-02,,
748,1.56E-02,,
749,1.56E-02,,
750,1.68E-02,,
751,1.68E-02,,
752,1.68E-02,,
753,1.80E-02,,
754,1.80E-02,,
755,1.92E-02,,
756,1.92E-02,,
757,1.92E-02,,
758,2.04E-02,,
759,2.04E-02,,
760,2.16E-02,,
761,2.16E-02,,
762,2.16E-02,,
763,2.16E-02,,
764,2.28E-02,,
765,2.28E-02,,
766,2.40E-02,,
767,2.40E-02,,
768,2.40E-02,,
769,2.52E-02,,
770,2.52E-02,,
771,2.64E-02,,
772,2.64E-02,,
773,2.64E-02,,
774,2.76E-02,,
775,2.76E-02,,
776,2.88E-02,,
777,2.88E-02,,
778,2.88E-02,,
779,3.00E-02,,
780,3.00E-02,,
781,3.00E-02,,
782,3.12E-02,,
783,3.12E-02,,
784,3.12E-02,,
785,3.24E-02,,
786,3.24E-02,,
787,3.24E-02,,
788,3.36E-02,,
789,3.36E-02,,
790,3.36E-02,,
791,3.36E-02,,
792,3.48E-02,,
793,3.48E-02,,
794,3.48E-02,,
795,3.48E-02,,
796,3.60E-02,,
797,3.60E-02,,
798,3.60E-02,,
799,3.60E-02,,
800,3.60E-02,,
801,3.72E-02,,
802,3.72E-02,,
803,3.72E-02,,
804,3.72E-02,,
805,3.72E-02,,
806,3.72E-02,,
807,3.72E-02,,
808,3.84E-02,,
809,3.84E-02,,
810,3.84E-02,,
811,3.84E-02,,
812,3.84E-02,,
813,3.84E-02,,
814,3.84E-02,,
815,3.84E-02,,
816,3.96E-02,,
817,3.96E-02,,
818,3.96E-02,,
819,3.96E-02,,
820,3.96E-02,,
821,3.96E-02,,
822,3.96E-02,,
823,3.96E-02,,
824,3.96E-02,,
825,3.96E-02,,
826,3.96E-02,,
827,3.96E-02,,
828,3.96E-02,,
829,3.96E-02,,
830,3.96E-02,,
831,3.96E-02,,
832,3.96E-02,,
833,3.96E-02,,
834,3.96E-02,,
835,3.96E-02,,
836,3.96E-02,,
837,3.96E-02,,
838,3.96E-02,,
839,3.96E-02,,
840,3.96E-02,,
841,3.84E-02,,
842,3.84E-02,,
843,3.84E-02,,
844,3.84E-02,,
845,3.84E-02,,
846,3.84E-02,,
847,3.84E-02,,
848,3.84E-02,,
849,3.84E-02,,
850,3.84E-02,,
851,3.72E-02,,
852,3.72E-02,,
853,3.72E-02,,
854,3.72E-02,,
855,3.72E-02,,
856,3.72E-02,,
857,3.60E-02,,
858,3.60E-02,,
859,3.60E-02,,
860,3.48E-02,,
861,3.48E-02,,
862,3.48E-02,,
863,3.48E-02,,
864,3.48E-02,,
865,3.36E-02,,
866,3.36E-02,,
867,3.36E-02,,
868,3.24E-02,,
869,3.24E-02,,
870,3.24E-02,,
871,3.12E-02,,
872,3.12E-02,,
873,3.12E-02,,
874,3.00E-02,,
875,3.00E-02,,
876,2.88E-02,,
877,2.88E-02,,
878,2.88E-02,,
879,2.88E-02,,
880,2.76E-02,,
881,2.76E-02,,
882,2.76E-02,,
883,2.76E-02,,
884,2.64E-02,,
885,2.64E-02,,
886,2.64E-02,,
887,2.52E-02,,
888,2.52E-02,,
889,2.52E-02,,
890,2.40E-02,,
891,2.40E-02,,
892,2.40E-02,,
893,2.28E-02,,
894,2.28E-02,,
895,2.28E-02,,
896,2.16E-02,,
897,2.16E-02,,
898,2.16E-02,,
899,2.04E-02,,
900,2.04E-02,,
901,2.04E-02,,
902,2.04E-02,,
903,1.92E-02,,
904,1.92E-02,,
905,1.92E-02,,
906,1.80E-02,,
907,1.80E-02,,
908,1.80E-02,,
909,1.80E-02,,
910,1.80E-02,,
911,1.68E-02,,
912,1.68E-02,,
913,1.68E-02,,
914,1.68E-02,,
915,1.68E-02,,
916,1.68E-02,,
917,1.56E-02,,
918,1.56E-02,,
919,1.56E-02,,
920,1.56E-02,,
921,1.56E-02,,
922,1.56E-02,,
923,1.56E-02,,
924,1.56E-02,,
925,1.56E-02,,
926,1.56E-02,,
927,1.56E-02,,
928,1.56E-02,,
929,1.56E-02,,
930,1.56E-02,,
931,1.56E-02,,
932,1.56E-02,,
933,1.68E-02,,
934,1.68E-02,,
935,1.68E-02,,
936,1.68E-02,,
937,1.68E-02,,
938,1.68E-02,,
939,1.68E-02,,
940,1.80E-02,,
941,1.80E-02,,
942,1.80E-02,,
943,1.80E-02,,
944,1.80E-02,,
945,1.92E-02,,
946,1.92E-02,,
947,1.92E-02,,
948,1.92E-02,,
949,2.04E-02,,
950,2.04E-02,,
951,2.04E-02,,
952,2.16E-02,,
953,2.16E-02,,
954,2.16E-02,,
955,2.16E-02,,
956,2.28E-02,,
957,2.28E-02,,
958,2.28E-02,,
959,2.40E-02,,
960,2.40E-02,,
961,2.40E-02,,
962,2.52E-02,,
963,2.52E-02,,
964,2.52E-02,,
965,2.52E-02,,
966,2.64E-02,,
967,2.64E-02,,
968,2.76E-02,,
969,2.76E-02,,
970,2.76E-02,,
971,2.88E-02,,
972,2.88E-02,,
973,3.00E-02,,
974,3.00E-02,,
975,3.00E-02,,
976,3.12E-02,,
977,3.12E-02,,
978,3.24E-02,,
979,3.24E-02,,
980,3.24E-02,,
981,3.36E-02,,
982,3.36E-02,,
983,3.36E-02,,
984,3.48E-02,,
985,3.48E-02,,
986,3.48E-02,,
987,3.60E-02,,
988,3.60E-02,,
989,3.60E-02,,
990,3.72E-02,,
991,3.72E-02,,
992,3.72E-02,,
993,3.84E-02,,
994,3.84E-02,,
995,3.84E-02,,
996,3.84E-02,,
997,3.96E-02,,
998,3.96E-02,,
999,3.96E-02,,
1000,4.08E-02,,
1001,4.08E-02,,
1002,4.08E-02,,
1003,4.08E-02,,
1004,4.08E-02,,
1005,4.08E-02,,
1006,4.20E-02,,
1007,4.20E-02,,
1008,4.20E-02,,
1009,4.20E-02,,
1010,4.32E-02,,
1011,4.32E-02,,
1012,4.32E-02,,
1013,4.32E-02,,
1014,4.32E-02,,
1015,4.32E-02,,
1016,4.44E-02,,
1017,4.44E-02,,
1018,4.44E-02,,
1019,4.44E-02,,
1020,4.44E-02,,
1021,4.56E-02,,
1022,4.56E-02,,
1023,4.56E-02,,
1024,4.68E-02,,
1025,4.68E-02,,
1026,4.68E-02,,
1027,4.68E-02,,
1028,4.68E-02,,
1029,4.80E-02,,
1030,4.80E-02,,
1031,4.80E-02,,
1032,4.80E-02,,
1033,4.80E-02,,
1034,4.80E-02,,
1035,4.80E-02,,
1036,4.92E-02,,
1037,4.92E-02,,
1038,4.92E-02,,
1039,4.92E-02,,
1040,4.92E-02,,
1041,4.92E-02,,
1042,4.92E-02,,
1043,4.92E-02,,
1044,4.92E-02,,
1045,4.92E-02,,
1046,4.92E-02,,
1047,4.92E-02,,
1048,4.92E-02,,
1049,4.92E-02,,
1050,4.92E-02,,
1051,4.92E-02,,
1052,4.92E-02,,
1053,4.92E-02,,
1054,4.92E-02,,
1055,4.92E-02,,
1056,4.92E-02,,
1057,4.92E-02,,
1058,4.92E-02,,
1059,4.80E-02,,
1060,4.80E-02,,
1061,4.80E-02,,
1062,4.80E-02,,
1063,4.80E-02,,
1064,4.80E-02,,
1065,4.80E-02,,
1066,4.80E-02,,
1067,4.80E-02,,
1068,4.68E-02,,
1069,4.68E-02,,
1070,4.68E-02,,
1071,4.68E-02,,
1072,4.68E-02,,
1073,4.68E-02,,
1074,4.68E-02,,
1075,4.68E-02,,
1076,4.68E-02,,
1077,4.68E-02,,
1078,4.68E-02,,
1079,4.68E-02,,
1080,4.68E-02,,
1081,4.56E-02,,
1082,4.56E-02,,
1083,4.56E-02,,
1084,4.56E-02,,
1085,4.44E-02,,
1086,4.44E-02,,
1087,4.44E-02,,
1088,4.32E-02,,
1089,4.32E-02,,
1090,4.20E-02,,
1091,4.20E-02,,
1092,4.20E-02,,
1093,4.08E-02,,
1094,4.08E-02,,
1095,4.08E-02,,
1096,3.96E-02,,
1097,3.96E-02,,
1098,3.96E-02,,
1099,3.96E-02,,
1100,3.84E-02,,
1101,3.84E-02,,
1102,3.84E-02,,
1103,3.72E-02,,
1104,3.72E-02,,
1105,3.72E-02,,
1106,3.72E-02,,
1107,3.60E-02,,
1108,3.60E-02,,
1109,3.60E-02,,
1110,3.48E-02,,
1111,3.48E-02,,
1112,3.48E-02,,
1113,3.48E-02,,
1114,3.48E-02,,
1115,3.36E-02,,
1116,3.36E-02,,
1117,3.36E-02,,
1118,3.36E-02,,
1119,3.36E-02,,
1120,3.24E-02,,
1121,3.24E-02,,
1122,3.24E-02,,
1123,3.24E-02,,
1124,3.24E-02,,
1125,3.24E-02,,
1126,3.12E-02,,
1127,3.12E-02,,
1128,3.12E-02,,
1129,3.12E-02,,
1130,3.12E-02,,
1131,3.12E-02,,
1132,3.12E-02,,
1133,3.12E-02,,
1134,3.12E-02,,
1135,3.12E-02,,
1136,3.12E-02,,
1137,3.12E-02,,
1138,3.12E-02,,
1139,3.12E-02,,
1140,3.12E-02,,
1141,3.12E-02,,
1142,3.12E-02,,
1143,3.12E-02,,
1144,3.12E-02,,
1145,3.12E-02,,
1146,3.12E-02,,
1147,3.12E-02,,
1148,3.12E-02,,
1149,3.12E-02,,
1150,3.12E-02,,
1151,3.12E-02,,
1152,3.12E-02,,
1153,3.12E-02,,
1154,3.24E-02,,
1155,3.24E-02,,
1156,3.24E-02,,
1157,3.24E-02,,
1158,3.24E-02,,
1159,3.24E-02,,
1160,3.36E-02,,
1161,3.36E-02,,
1162,3.36E-02,,
1163,3.36E-02,,
1164,3.36E-02,,
1165,3.36E-02,,
1166,3.36E-02,,
1167,3.48E-02,,
1168,3.48E-02,,
1169,3.48E-02,,
1170,3.48E-02,,
1171,3.60E-02,,
1172,3.60E-02,,
1173,3.60E-02,,
1174,3.60E-02,,
1175,3.72E-02,,
1176,3.72E-02,,
1177,3.72E-02,,
1178,3.72E-02,,
1179,3.84E-02,,
1180,3.84E-02,,
1181,3.84E-02,,
1182,3.84E-02,,
1183,3.96E-02,,
1184,3.96E-02,,
1185,3.96E-02,,
1186,3.96E-02,,
1187,4.08E-02,,
1188,4.08E-02,,
1189,4.08E-02,,
1190,4.20E-02,,
1191,4.20E-02,,
1192,4.20E-02,,
1193,4.20E-02,,
1194,4.32E-02,,
1195,4.32E-02,,
1196,4.32E-02,,
1197,4.32E-02,,
1198,4.32E-02,,
1199,4.32E-02,,
1200,4.44E-02,,
1201,4.44E-02,,
1202,4.56E-02,,
1203,4.56E-02,,
1204,4.56E-02,,
1205,4.68E-02,,
1206,4.68E-02,,
1207,4.68E-02,,
1208,4.80E-02,,
1209,4.80E-02,,
1210,4.92E-02,,
1211,4.92E-02,,
1212,5.04E-02,,
1213,5.04E-02,,
1214,5.04E-02,,
1215,5.16E-02,,
1216,5.16E-02,,
1217,5.16E-02,,
1218,5.28E-02,,
1219,5.28E-02,,
1220,5.28E-02,,
1221,5.40E-02,,
1222,5.40E-02,,
1223,5.40E-02,,
1224,5.40E-02,,
1225,5.52E-02,,
1226,5.52E-02,,
1227,5.52E-02,,
1228,5.64E-02,,
1229,5.64E-02,,
1230,5.64E-02,,
1231,5.64E-02,,
1232,5.64E-02,,
1233,5.76E-02,,
1234,5.76E-02,,
1235,5.76E-02,,
1236,5.76E-02,,
1237,5.76E-02,,
1238,5.88E-02,,
1239,5.88E-02,,
1240,5.88E-02,,
1241,5.88E-02,,
1242,5.88E-02,,
1243,5.88E-02,,
1244,6.00E-02,,
1245,6.00E-02,,
1246,6.00E-02,,
1247,6.00E-02,,
1248,6.00E-02,,
1249,6.00E-02,,
1250,6.12E-02,,
1251,6.12E-02,,
1252,6.12E-02,,
1253,6.12E-02,,
1254,6.12E-02,,
1255,6.12E-02,,
1256,6.12E-02,,
1257,6.24E-02,,
1258,6.24E-02,,
1259,6.24E-02,,
1260,6.24E-02,,
1261,6.24E-02,,
1262,6.24E-02,,
1263,6.24E-02,,
1264,6.24E-02,,
1265,6.24E-02,,
1266,6.24E-02,,
1267,6.24E-02,,
1268,6.24E-02,,
1269,6.24E-02,,
1270,6.24E-02,,
1271,6.24E-02,,
1272,6.24E-02,,
1273,6.24E-02,,
1274,6.24E-02,,
1275,6.24E-02,,
1276,6.36E-02,,
1277,6.36E-02,,
1278,6.36E-02,,
1279,6.24E-02,,
1280,6.24E-02,,
1281,6.24E-02,,
1282,6.24E-02,,
1283,6.24E-02,,
1284,6.24E-02,,
1285,6.24E-02,,
1286,6.24E-02,,
1287,6.24E-02,,
1288,6.24E-02,,
1289,6.24E-02,,
1290,6.12E-02,,
1291,6.12E-02,,
1292,6.12E-02,,
1293,6.12E-02,,
1294,6.12E-02,,
1295,6.12E-02,,
1296,6.12E-02,,
1297,6.12E-02,,
1298,6.12E-02,,
1299,6.12E-02,,
1300,6.00E-02,,
1301,6.00E-02,,
1302,6.00E-02,,
1303,6.00E-02,,
1304,6.00E-02,,
1305,6.00E-02,,
1306,6.00E-02,,
1307,5.88E-02,,
1308,5.88E-02,,
1309,5.88E-02,,
1310,5.88E-02,,
1311,5.88E-02,,
1312,5.88E-02,,
1313,5.76E-02,,
1314,5.76E-02,,
1315,5.76E-02,,
